test.vcd
$date
	Fri Jun 11 22:57:31 2021
$end
$version
	Icarus Verilog
$end
$timescale
	1ns
$end
$scope module tb $end
$scope module uut $end
$var wire 1 ! clk $end
$var wire 1 " rst $end
$var wire 32 # val_WB [31:0] $end
$var wire 1 $ two_src_ID $end
$var wire 4 % status_ID [3:0] $end
$var wire 4 & status_EXE [3:0] $end
$var wire 4 ' src2_ID [3:0] $end
$var wire 4 ( src1_ID [3:0] $end
$var wire 24 ) signed_imm_24_ID [23:0] $end
$var wire 12 * shifter_operand_ID [11:0] $end
$var wire 32 + rn_val_ID [31:0] $end
$var wire 32 , rm_val_ID [31:0] $end
$var wire 32 - rm_val_EXE [31:0] $end
$var wire 32 . pc_IF [31:0] $end
$var wire 32 / pc_ID [31:0] $end
$var wire 32 0 instruction_IF [31:0] $end
$var wire 1 1 imm_ID $end
$var wire 1 2 hazard $end
$var wire 4 3 exe_cmd_ID [3:0] $end
$var wire 4 4 dest_WB [3:0] $end
$var wire 4 5 dest_MEM2 [3:0] $end
$var wire 4 6 dest_MEM [3:0] $end
$var wire 4 7 dest_ID [3:0] $end
$var wire 4 8 dest_EXE2 [3:0] $end
$var wire 4 9 dest_EXE [3:0] $end
$var wire 32 : data_mem_MEM [31:0] $end
$var wire 32 ; branch_address_EXE [31:0] $end
$var wire 32 < alu_res_MEM [31:0] $end
$var wire 32 = alu_res_EXE [31:0] $end
$var wire 1 > WB_EN_WB $end
$var wire 1 ? WB_EN_MEM2 $end
$var wire 1 @ WB_EN_MEM $end
$var wire 1 A WB_EN_ID $end
$var wire 1 B WB_EN_EXE2 $end
$var wire 1 C WB_EN_EXE $end
$var wire 1 D S_ID $end
$var wire 1 E MEM_W_EN_ID $end
$var wire 1 F MEM_W_EN_EXE $end
$var wire 1 G MEM_R_EN_MEM $end
$var wire 1 H MEM_R_EN_ID $end
$var wire 1 I MEM_R_EN_EXE $end
$var wire 1 J B_ID $end
$var wire 1 K B_EXE $end
$scope module EXE $end
$var wire 1 K B_out $end
$var wire 1 B EXE_WB_EN $end
$var wire 4 L EXE_dst [3:0] $end
$var wire 1 M MEM_EN $end
$var wire 1 ! clk $end
$var wire 1 " rst $end
$var wire 32 N val1 [31:0] $end
$var wire 32 O val_rn [31:0] $end
$var wire 32 P val_rm_out [31:0] $end
$var wire 32 Q val_rm [31:0] $end
$var wire 32 R val2 [31:0] $end
$var wire 4 S status_out [3:0] $end
$var wire 4 T status_in [3:0] $end
$var wire 4 U status_bits [3:0] $end
$var wire 24 V signed_imm_24 [23:0] $end
$var wire 12 W shifter_oprand [11:0] $end
$var wire 32 X pc [31:0] $end
$var wire 1 1 imm $end
$var wire 4 Y dest_out [3:0] $end
$var wire 4 Z dest [3:0] $end
$var wire 32 [ branch_address [31:0] $end
$var wire 32 \ alu_res_out [31:0] $end
$var wire 32 ] alu_res [31:0] $end
$var wire 1 C WB_EN_OUT $end
$var wire 1 A WB_EN $end
$var wire 1 D S $end
$var wire 1 F MEM_W_EN_OUT $end
$var wire 1 E MEM_W_EN $end
$var wire 1 I MEM_R_EN_OUT $end
$var wire 1 H MEM_R_EN $end
$var wire 4 ^ EXE_CMD [3:0] $end
$var wire 1 _ C $end
$var wire 1 J B $end
$scope module alu $end
$var wire 1 _ c $end
$var wire 32 ` val1 [31:0] $end
$var wire 32 a val2 [31:0] $end
$var wire 32 b result [31:0] $end
$var wire 4 c EXE_CMD [3:0] $end
$var reg 4 d status_bits [3:0] $end
$var reg 33 e tmp [32:0] $end
$upscope $end
$scope module pr_exe_mem $end
$var wire 32 f ALU_RES_IN [31:0] $end
$var wire 1 ! clk $end
$var wire 1 " rst $end
$var wire 1 A WB_EN_IN $end
$var wire 32 g VAL_RM_IN [31:0] $end
$var wire 1 E MEM_W_EN_IN $end
$var wire 1 H MEM_R_EN_IN $end
$var wire 4 h DEST_IN [3:0] $end
$var reg 32 i ALU_RES_OUT [31:0] $end
$var reg 4 j DEST_OUT [3:0] $end
$var reg 1 I MEM_R_EN_OUT $end
$var reg 1 F MEM_W_EN_OUT $end
$var reg 32 k VAL_RM_OUT [31:0] $end
$var reg 1 C WB_EN_OUT $end
$upscope $end
$scope module sr $end
$var wire 1 ! clk $end
$var wire 1 " rst $end
$var wire 4 l status_bits_in [3:0] $end
$var wire 1 D s $end
$var reg 4 m status_bits_out [3:0] $end
$upscope $end
$scope module v2g $end
$var wire 1 M mem_en $end
$var wire 12 n shifter_oprand [11:0] $end
$var wire 1 o shift_imm $end
$var wire 1 p shift $end
$var wire 1 q rotate_imm $end
$var wire 32 r rm_val [31:0] $end
$var wire 1 s rm $end
$var wire 1 t immed_8 $end
$var wire 1 1 imm $end
$var wire 1 u fourth $end
$var reg 32 v val2 [31:0] $end
$var integer 32 w i [31:0] $end
$upscope $end
$upscope $end
$scope module HAZARD $end
$var wire 1 B WB_EN_EXE2 $end
$var wire 4 x dest_EXE2 [3:0] $end
$var wire 1 $ two_src_ID $end
$var wire 4 y src2_ID [3:0] $end
$var wire 4 z src1_ID [3:0] $end
$var wire 4 { dest_MEM2 [3:0] $end
$var wire 1 ? WB_EN_MEM2 $end
$var reg 1 2 hazard $end
$upscope $end
$scope module ID $end
$var wire 1 ! clk $end
$var wire 1 2 hzrdIn $end
$var wire 1 | mux_cc $end
$var wire 1 " rst $end
$var wire 4 } srIn [3:0] $end
$var wire 4 ~ src1 [3:0] $end
$var wire 1 $ twoSrc $end
$var wire 1 !" wb_ctrl $end
$var wire 32 "" wbValIn [31:0] $end
$var wire 1 > wbIn $end
$var wire 1 A wbEnOut $end
$var wire 4 #" wbDstIn [3:0] $end
$var wire 4 $" src2 [3:0] $end
$var wire 4 %" srOut [3:0] $end
$var wire 24 &" signedImm24Out [23:0] $end
$var wire 24 '" signedImm24 [23:0] $end
$var wire 12 (" shifterOpr [11:0] $end
$var wire 12 )" shOprOut [11:0] $end
$var wire 1 *" s_ctrl $end
$var wire 1 D sOut $end
$var wire 1 +" s $end
$var wire 4 ," rs [3:0] $end
$var wire 32 -" rnValOut [31:0] $end
$var wire 32 ." rnVal [31:0] $end
$var wire 4 /" rn [3:0] $end
$var wire 32 0" rmValOut [31:0] $end
$var wire 32 1" rmVal [31:0] $end
$var wire 4 2" rm [3:0] $end
$var wire 4 3" rd [3:0] $end
$var wire 32 4" pcOut [31:0] $end
$var wire 32 5" pcIn [31:0] $end
$var wire 4 6" opcode [3:0] $end
$var wire 2 7" mode [1:0] $end
$var wire 1 E memwEnOut $end
$var wire 1 H memrEnOut $end
$var wire 1 8" memWrite_ctrl $end
$var wire 1 9" memRead_ctrl $end
$var wire 32 :" instructionIn [31:0] $end
$var wire 1 1 immOut $end
$var wire 1 ;" imm $end
$var wire 4 <" exeCmd_ctrl [3:0] $end
$var wire 4 =" exeCmdOut [3:0] $end
$var wire 4 >" destOut [3:0] $end
$var wire 4 ?" cond [3:0] $end
$var wire 1 @" check_cc $end
$var wire 1 A" b_ctrl $end
$var wire 1 J bOut $end
$scope module cc $end
$var wire 4 B" cond [3:0] $end
$var wire 4 C" sr [3:0] $end
$var wire 1 D" Z $end
$var wire 1 E" V $end
$var wire 1 F" N $end
$var wire 1 G" C $end
$var reg 1 @" cCheck $end
$upscope $end
$scope module ctrl $end
$var wire 2 H" mode [1:0] $end
$var wire 1 | mux_cc $end
$var wire 4 I" opCode [3:0] $end
$var wire 1 +" sIn $end
$var reg 1 A" branch $end
$var reg 4 J" exeCmd [3:0] $end
$var reg 1 9" memRead $end
$var reg 1 8" memWrite $end
$var reg 1 *" sOut $end
$var reg 1 !" wbEn $end
$upscope $end
$scope module pr_id_exe $end
$var wire 1 A" bIn $end
$var wire 1 ! clk $end
$var wire 4 K" destIn [3:0] $end
$var wire 4 L" exeCmdIn [3:0] $end
$var wire 1 J flush $end
$var wire 1 ;" immIn $end
$var wire 1 9" memrEnIn $end
$var wire 1 8" memwEnIn $end
$var wire 1 " rst $end
$var wire 1 *" sIn $end
$var wire 12 M" shOprIn [11:0] $end
$var wire 24 N" signedImm24In [23:0] $end
$var wire 4 O" srIn [3:0] $end
$var wire 1 !" wbEnIn $end
$var wire 32 P" rnValIn [31:0] $end
$var wire 32 Q" rmValIn [31:0] $end
$var wire 32 R" pcIn [31:0] $end
$var reg 1 J b $end
$var reg 4 S" dest [3:0] $end
$var reg 4 T" exeCmd [3:0] $end
$var reg 1 1 imm $end
$var reg 1 H memrEn $end
$var reg 1 E memwEn $end
$var reg 32 U" pc [31:0] $end
$var reg 32 V" rmVal [31:0] $end
$var reg 32 W" rnVal [31:0] $end
$var reg 1 D s $end
$var reg 12 X" shOpr [11:0] $end
$var reg 24 Y" signedImm24 [23:0] $end
$var reg 4 Z" sr [3:0] $end
$var reg 1 A wbEn $end
$upscope $end
$scope module rf $end
$var wire 1 ! clk $end
$var wire 32 [" reg1 [31:0] $end
$var wire 32 \" reg2 [31:0] $end
$var wire 1 " rst $end
$var wire 4 ]" src1 [3:0] $end
$var wire 4 ^" src2 [3:0] $end
$var wire 32 _" wbVal [31:0] $end
$var wire 1 > wbEn $end
$var wire 4 `" wbDst [3:0] $end
$var integer 32 a" i [31:0] $end
$upscope $end
$upscope $end
$scope module IF $end
$var wire 32 b" branchAddress [31:0] $end
$var wire 1 J branchTacken $end
$var wire 1 ! clk $end
$var wire 1 2 hzrd $end
$var wire 1 " rst $end
$var wire 32 c" pipedPc4 [31:0] $end
$var wire 32 d" pipedInstruction [31:0] $end
$var wire 32 e" pcOut [31:0] $end
$var wire 32 f" pcIn [31:0] $end
$var wire 32 g" pc4 [31:0] $end
$var wire 32 h" instruction [31:0] $end
$scope module PC $end
$var wire 1 ! clk $end
$var wire 1 2 freeze $end
$var wire 32 i" pcIn [31:0] $end
$var wire 1 " rst $end
$var reg 32 j" pcOut [31:0] $end
$upscope $end
$scope module im $end
$var wire 32 k" address [31:0] $end
$var wire 32 l" instruction [31:0] $end
$upscope $end
$scope module pr_if_id $end
$var wire 1 ! clk $end
$var wire 1 J flush $end
$var wire 1 2 freeze $end
$var wire 32 m" instructionIn [31:0] $end
$var wire 32 n" pcIn [31:0] $end
$var wire 1 " rst $end
$var reg 32 o" instructionOut [31:0] $end
$var reg 32 p" pcOut [31:0] $end
$upscope $end
$upscope $end
$scope module MEM $end
$var wire 1 I MEM_R_EN_EXE $end
$var wire 1 F MEM_W_EN_EXE $end
$var wire 1 C WB_EN_EXE $end
$var wire 1 ? WB_EN_MEM2 $end
$var wire 32 q" alu_res_EXE [31:0] $end
$var wire 1 ! clk $end
$var wire 4 r" dest_EXE [3:0] $end
$var wire 4 s" dest_MEM2 [3:0] $end
$var wire 32 t" rm_val_EXE [31:0] $end
$var wire 1 " rst $end
$var wire 4 u" dest_MEM [3:0] $end
$var wire 32 v" data_mem_MEM [31:0] $end
$var wire 32 w" data_mem [31:0] $end
$var wire 32 x" alu_res_MEM [31:0] $end
$var wire 1 @ WB_EN_MEM $end
$var wire 1 G MEM_R_EN_MEM $end
$scope module dm $end
$var wire 1 I MEM_R_EN $end
$var wire 1 F MEM_W_EN $end
$var wire 32 y" alu_res [31:0] $end
$var wire 1 ! clk $end
$var wire 32 z" rm_val [31:0] $end
$var wire 1 " rst $end
$var wire 32 {" tmp [31:0] $end
$var wire 32 |" data_mem [31:0] $end
$var wire 32 }" address [31:0] $end
$upscope $end
$scope module pr_mem_wb $end
$var wire 1 I MEM_R_EN_EXE $end
$var wire 1 C WB_EN_EXE $end
$var wire 32 ~" alu_res_EXE [31:0] $end
$var wire 1 ! clk $end
$var wire 32 !# data_mem [31:0] $end
$var wire 4 "# dest_EXE [3:0] $end
$var wire 1 " rst $end
$var reg 1 G MEM_R_EN_MEM $end
$var reg 1 @ WB_EN_MEM $end
$var reg 32 ## alu_res_MEM [31:0] $end
$var reg 32 $# data_mem_MEM [31:0] $end
$var reg 4 %# dest_MEM [3:0] $end
$upscope $end
$upscope $end
$scope module WB $end
$var wire 1 G MEM_R_EN $end
$var wire 1 @ WB_EN $end
$var wire 1 > WB_EN_OUT $end
$var wire 32 &# alu_res [31:0] $end
$var wire 32 '# data_mem [31:0] $end
$var wire 4 (# dest [3:0] $end
$var wire 4 )# dest_out [3:0] $end
$var wire 32 *# val_out [31:0] $end
$upscope $end
$upscope $end
$upscope $end
$enddefinitions $end
#0
$dumpvars
b0 *#
b0 )#
b0 (#
b0 '#
b0 &#
b0 %#
b0 $#
b0 ##
b0 "#
b0 !#
b0 ~"
b111111111111111111111100000000 }"
b0 |"
b11111111111111111111110000000001 {"
b0 z"
b0 y"
b0 x"
b0 w"
b0 v"
b0 u"
b0 t"
b0 s"
b0 r"
b0 q"
b0 p"
b0 o"
b100 n"
b11100011101000000000000000010100 m"
b11100011101000000000000000010100 l"
b0 k"
b0 j"
b100 i"
b11100011101000000000000000010100 h"
b100 g"
b100 f"
b0 e"
b0 d"
b0 c"
b0 b"
b1111 a"
b0 `"
b0 _"
b0 ^"
b0 ]"
b0 \"
b0 ["
b0 Z"
b0 Y"
b0 X"
b0 W"
b0 V"
b0 U"
b0 T"
b0 S"
b0 R"
b0 Q"
b0 P"
b0 O"
b0 N"
b0 M"
b0 L"
b0 K"
b0 J"
b0 I"
b0 H"
0G"
0F"
0E"
0D"
b0 C"
b0 B"
0A"
0@"
b0 ?"
b0 >"
b0 ="
b0 <"
0;"
b0 :"
09"
08"
b0 7"
b0 6"
b0 5"
b0 4"
b0 3"
b0 2"
b0 1"
b0 0"
b0 /"
b0 ."
b0 -"
b0 ,"
0+"
0*"
b0 )"
b0 ("
b0 '"
b0 &"
b0 %"
b0 $"
b0 #"
b0 ""
0!"
b0 ~
b0 }
1|
b0 {
b0 z
b0 y
b0 x
b0 w
b0 v
0u
0t
0s
b0 r
0q
0p
0o
b0 n
b0 m
b100 l
b0 k
b0 j
b0 i
b0 h
b0 g
b0 f
b0 e
b100 d
b0 c
b0 b
b0 a
b0 `
0_
b0 ^
b0 ]
b0 \
b0 [
b0 Z
b0 Y
b0 X
b0 W
b0 V
b100 U
b0 T
b0 S
b0 R
b0 Q
b0 P
b0 O
b0 N
0M
b0 L
0K
0J
0I
0H
0G
0F
0E
0D
0C
0B
0A
0@
0?
0>
b0 =
b0 <
b0 ;
b0 :
b0 9
b0 8
b0 7
b0 6
b0 5
b0 4
b0 3
02
01
b0 0
b0 /
b0 .
b0 -
b0 ,
b0 +
b0 *
b0 )
b0 (
b0 '
b0 &
b0 %
1$
b0 #
1"
0!
$end
#10
0"
#20
1!"
b1 <"
b1 J"
b1 L"
0|
0$
b100 1"
b100 Q"
b100 \"
b100 '
b100 y
b100 $"
b100 ^"
1@"
b101000000000000000010100 '"
b101000000000000000010100 N"
b10100 ("
b10100 M"
b100 2"
b1101 6"
b1101 I"
1;"
b1110 ?"
b1110 B"
b1000 f"
b1000 i"
b100 .
b100 5"
b100 R"
b100 c"
b100 p"
b11100011101000000000000000010100 0
b11100011101000000000000000010100 :"
b11100011101000000000000000010100 d"
b11100011101000000000000000010100 o"
b11100011101000000001101000000001 h"
b11100011101000000001101000000001 l"
b11100011101000000001101000000001 m"
b1000 g"
b1000 n"
b100 e"
b100 j"
b100 k"
1!
#30
0!
#40
b0 <"
b0 J"
b0 L"
0!"
1|
12
b1 1"
b1 Q"
b1 \"
b1 '
b1 y
b1 $"
b1 ^"
b1100 f"
b1100 i"
b101000000001101000000001 '"
b101000000001101000000001 N"
b101000000001 ("
b101000000001 M"
b1010 ,"
b1 2"
b1 3"
b1 K"
1u
b11100011101000000010000100000011 h"
b11100011101000000010000100000011 l"
b11100011101000000010000100000011 m"
b1100 g"
b1100 n"
b1000 e"
b1000 j"
b1000 k"
b1000 .
b1000 5"
b1000 R"
b1000 c"
b1000 p"
b11100011101000000001101000000001 0
b11100011101000000001101000000001 :"
b11100011101000000001101000000001 d"
b11100011101000000001101000000001 o"
b101000000000000000010100 )
b101000000000000000010100 V
b101000000000000000010100 &"
b101000000000000000010100 Y"
b10100 *
b10100 W
b10100 n
b10100 )"
b10100 X"
11
b100 ,
b100 Q
b100 g
b100 r
b100 0"
b100 V"
b11111110100000000000000001010100 ;
b11111110100000000000000001010100 [
b11111110100000000000000001010100 b"
b100 /
b100 X
b100 4"
b100 U"
b1 3
b1 ^
b1 c
b1 ="
b1 T"
1B
1A
1!
#50
0!
#60
b1 R
b1 a
b1 v
1s
1t
12
0u
b100 -
b100 P
b100 k
b100 t"
b100 z"
1?
1C
b1 8
b1 L
b1 x
b1 7
b1 Z
b1 h
b1 >"
b1 S"
b101000000001101000000001 )
b101000000001101000000001 V
b101000000001101000000001 &"
b101000000001101000000001 Y"
b101000000001 *
b101000000001 W
b101000000001 n
b101000000001 )"
b101000000001 X"
b1 ,
b1 Q
b1 g
b1 r
b1 0"
b1 V"
b11111110100000000110100000001100 ;
b11111110100000000110100000001100 [
b11111110100000000110100000001100 b"
b1000 /
b1000 X
b1000 4"
b1000 U"
b0 3
b0 ^
b0 c
b0 ="
b0 T"
0B
0A
1!
#70
0!
#80
1!"
b1 <"
b1 J"
b1 L"
0|
02
b1 5
b1 {
b1 s"
b1 9
b1 Y
b1 j
b1 r"
b1 "#
b1 -
b1 P
b1 k
b1 t"
b1 z"
0?
0C
1>
1@
1!
#90
0!
#100
b1 ]
b1 b
b1 f
b11 1"
b11 Q"
b11 \"
b11 '
b11 y
b11 $"
b11 ^"
b0 U
b0 d
b0 l
b1 e
b101000000010000100000011 '"
b101000000010000100000011 N"
b100000011 ("
b100000011 M"
b1 ,"
b11 2"
b10 3"
b10 K"
b10000 f"
b10000 i"
0>
0@
b1 4
b1 #"
b1 `"
b1 )#
b1 6
b1 u"
b1 %#
b1 (#
b1 3
b1 ^
b1 c
b1 ="
b1 T"
1B
1A
b1100 .
b1100 5"
b1100 R"
b1100 c"
b1100 p"
b11100011101000000010000100000011 0
b11100011101000000010000100000011 :"
b11100011101000000010000100000011 d"
b11100011101000000010000100000011 o"
b11100000100100100011000000000010 h"
b11100000100100100011000000000010 l"
b11100000100100100011000000000010 m"
b10000 g"
b10000 n"
b1100 e"
b1100 j"
b1100 k"
1!
#110
0!
#120
b1000000000000000000000000000000 ]
b1000000000000000000000000000000 b
b1000000000000000000000000000000 f
0!"
b1000000000000000000000000000000 e
1|
1$
b1 w
b1000000000000000000000000000000 R
b1000000000000000000000000000000 a
b1000000000000000000000000000000 v
b10 1"
b10 Q"
b10 \"
b10 '
b10 y
b10 $"
b10 ^"
12
0*"
b0 <"
b0 J"
b0 L"
1q
b10100 f"
b10100 i"
b100100100011000000000010 '"
b100100100011000000000010 N"
b10 ("
b10 M"
b0 ,"
b10 2"
b11 3"
b11 K"
b10 ."
b10 P"
b10 ["
b10 (
b10 z
b10 ~
b10 ]"
b10 /"
1+"
b100 6"
b100 I"
0;"
b11100000101000000100000000000000 h"
b11100000101000000100000000000000 l"
b11100000101000000100000000000000 m"
b10100 g"
b10100 n"
b10000 e"
b10000 j"
b10000 k"
b10000 .
b10000 5"
b10000 R"
b10000 c"
b10000 p"
b11100000100100100011000000000010 0
b11100000100100100011000000000010 :"
b11100000100100100011000000000010 d"
b11100000100100100011000000000010 o"
b10 8
b10 L
b10 x
b10 7
b10 Z
b10 h
b10 >"
b10 S"
b101000000010000100000011 )
b101000000010000100000011 V
b101000000010000100000011 &"
b101000000010000100000011 Y"
b100000011 *
b100000011 W
b100000011 n
b100000011 )"
b100000011 X"
b11 ,
b11 Q
b11 g
b11 r
b11 0"
b11 V"
b11111110100000001000010000011000 ;
b11111110100000001000010000011000 [
b11111110100000001000010000011000 b"
b1100 /
b1100 X
b1100 4"
b1100 U"
b11111111111111111111110000000010 {"
b1 =
b1 \
b1 i
b1 q"
b1 y"
b1 ~"
1?
1C
1!
#130
0!
#140
0s
0t
0q
b0 ]
b0 b
b0 f
b1 #
b1 ""
b1 _"
b1 *#
b1111111111111111111100000000 }"
12
b0 w
b10 R
b10 a
b10 v
b100 U
b100 d
b100 l
b0 e
1>
1@
b1 <
b1 x"
b1 ##
b1 &#
b10 5
b10 {
b10 s"
b10 9
b10 Y
b10 j
b10 r"
b10 "#
b11 -
b11 P
b11 k
b11 t"
b11 z"
b111111111111111111110000000001 {"
b1000000000000000000000000000000 =
b1000000000000000000000000000000 \
b1000000000000000000000000000000 i
b1000000000000000000000000000000 q"
b1000000000000000000000000000000 y"
b1000000000000000000000000000000 ~"
b11 8
b11 L
b11 x
b11 7
b11 Z
b11 h
b11 >"
b11 S"
b100100100011000000000010 )
b100100100011000000000010 V
b100100100011000000000010 &"
b100100100011000000000010 Y"
b10 *
b10 W
b10 n
b10 )"
b10 X"
01
b10 ,
b10 Q
b10 g
b10 r
b10 0"
b10 V"
b10 N
b10 `
b10 +
b10 O
b10 -"
b10 W"
b11111110010010001100000000011000 ;
b11111110010010001100000000011000 [
b11111110010010001100000000011000 b"
b10000 /
b10000 X
b10000 4"
b10000 U"
b0 3
b0 ^
b0 c
b0 ="
b0 T"
0B
0A
1!
#150
0!
#160
1!"
1*"
b10 <"
b10 J"
b10 L"
0|
02
b111111111111111111111100000000 }"
b1000000000000000000000000000000 #
b1000000000000000000000000000000 ""
b1000000000000000000000000000000 _"
b1000000000000000000000000000000 *#
b11 5
b11 {
b11 s"
b11 9
b11 Y
b11 j
b11 r"
b11 "#
b10 -
b10 P
b10 k
b10 t"
b10 z"
b11111111111111111111110000000001 {"
b0 =
b0 \
b0 i
b0 q"
b0 y"
b0 ~"
0?
0C
b1000000000000000000000000000000 <
b1000000000000000000000000000000 x"
b1000000000000000000000000000000 ##
b1000000000000000000000000000000 &#
b10 4
b10 #"
b10 `"
b10 )#
b10 6
b10 u"
b10 %#
b10 (#
1!
#170
b1000000000000000000000000000000 ."
b1000000000000000000000000000000 P"
b1000000000000000000000000000000 ["
b1000000000000000000000000000000 1"
b1000000000000000000000000000000 Q"
b1000000000000000000000000000000 \"
0!
#180
b10000000000000000000000000000000 ]
b10000000000000000000000000000000 b
b10000000000000000000000000000000 f
b0 1"
b0 Q"
b0 \"
b0 '
b0 y
b0 $"
b0 ^"
0*"
b11 <"
b11 J"
b11 L"
b0 #
b0 ""
b0 _"
b0 *#
b1000000000000000000000000000000 R
b1000000000000000000000000000000 a
b1000000000000000000000000000000 v
b1001 U
b1001 d
b1001 l
b10000000000000000000000000000000 e
b101000000100000000000000 '"
b101000000100000000000000 N"
b0 ("
b0 M"
b0 2"
b100 3"
b100 K"
b0 ."
b0 P"
b0 ["
b0 (
b0 z
b0 ~
b0 ]"
b0 /"
0+"
b101 6"
b101 I"
b11000 f"
b11000 i"
0>
0@
b0 <
b0 x"
b0 ##
b0 &#
b11 4
b11 #"
b11 `"
b11 )#
b11 6
b11 u"
b11 %#
b11 (#
b1000000000000000000000000000000 ,
b1000000000000000000000000000000 Q
b1000000000000000000000000000000 g
b1000000000000000000000000000000 r
b1000000000000000000000000000000 0"
b1000000000000000000000000000000 V"
b1000000000000000000000000000000 N
b1000000000000000000000000000000 `
b1000000000000000000000000000000 +
b1000000000000000000000000000000 O
b1000000000000000000000000000000 -"
b1000000000000000000000000000000 W"
b10 3
b10 ^
b10 c
b10 ="
b10 T"
1D
1B
1A
b10100 .
b10100 5"
b10100 R"
b10100 c"
b10100 p"
b11100000101000000100000000000000 0
b11100000101000000100000000000000 :"
b11100000101000000100000000000000 d"
b11100000101000000100000000000000 o"
b11100000010001000101000100000100 h"
b11100000010001000101000100000100 l"
b11100000010001000101000100000100 m"
b11000 g"
b11000 n"
b10100 e"
b10100 j"
b10100 k"
1!
#190
1F"
1E"
b1001 &
b1001 S
b1001 m
b1001 }
b1001 C"
b1001 O"
0!
#200
0!"
1|
b100 1"
b100 Q"
b100 \"
b100 '
b100 y
b100 $"
b100 ^"
12
b0 <"
b0 J"
b0 L"
b0 ]
b0 b
b0 f
b11100 f"
b11100 i"
b10001000101000100000100 '"
b10001000101000100000100 N"
b100000100 ("
b100000100 M"
b1 ,"
b100 2"
b101 3"
b101 K"
b100 ."
b100 P"
b100 ["
b100 (
b100 z
b100 ~
b100 ]"
b100 /"
b10 6"
b10 I"
b0 R
b0 a
b0 v
b100 U
b100 d
b100 l
b0 e
b11111111111111111111100000000 }"
b11100000110000000110000010100000 h"
b11100000110000000110000010100000 l"
b11100000110000000110000010100000 m"
b11100 g"
b11100 n"
b11000 e"
b11000 j"
b11000 k"
b11000 .
b11000 5"
b11000 R"
b11000 c"
b11000 p"
b11100000010001000101000100000100 0
b11100000010001000101000100000100 :"
b11100000010001000101000100000100 d"
b11100000010001000101000100000100 o"
b1001 %
b1001 T
b1001 %"
b1001 Z"
b100 8
b100 L
b100 x
b100 7
b100 Z
b100 h
b100 >"
b100 S"
b101000000100000000000000 )
b101000000100000000000000 V
b101000000100000000000000 &"
b101000000100000000000000 Y"
b0 *
b0 W
b0 n
b0 )"
b0 X"
b0 ,
b0 Q
b0 g
b0 r
b0 0"
b0 V"
b0 N
b0 `
b0 +
b0 O
b0 -"
b0 W"
b11111110100000010000000000010100 ;
b11111110100000010000000000010100 [
b11111110100000010000000000010100 b"
b10100 /
b10100 X
b10100 4"
b10100 U"
b11 3
b11 ^
b11 c
b11 ="
b11 T"
0D
b1000000000000000000000000000000 -
b1000000000000000000000000000000 P
b1000000000000000000000000000000 k
b1000000000000000000000000000000 t"
b1000000000000000000000000000000 z"
b1111111111111111111110000000001 {"
b10000000000000000000000000000000 =
b10000000000000000000000000000000 \
b10000000000000000000000000000000 i
b10000000000000000000000000000000 q"
b10000000000000000000000000000000 y"
b10000000000000000000000000000000 ~"
1?
1C
1!
#210
0!
#220
1q
b10000000000000000000000000000000 #
b10000000000000000000000000000000 ""
b10000000000000000000000000000000 _"
b10000000000000000000000000000000 *#
b111111111111111111111100000000 }"
12
b100 R
b100 a
b100 v
1>
1@
b10000000000000000000000000000000 <
b10000000000000000000000000000000 x"
b10000000000000000000000000000000 ##
b10000000000000000000000000000000 &#
b100 5
b100 {
b100 s"
b100 9
b100 Y
b100 j
b100 r"
b100 "#
b0 -
b0 P
b0 k
b0 t"
b0 z"
b11111111111111111111110000000001 {"
b0 =
b0 \
b0 i
b0 q"
b0 y"
b0 ~"
b101 8
b101 L
b101 x
b101 7
b101 Z
b101 h
b101 >"
b101 S"
b10001000101000100000100 )
b10001000101000100000100 V
b10001000101000100000100 &"
b10001000101000100000100 Y"
b100000100 *
b100000100 W
b100000100 n
b100000100 )"
b100000100 X"
b100 ,
b100 Q
b100 g
b100 r
b100 0"
b100 V"
b100 N
b100 `
b100 +
b100 O
b100 -"
b100 W"
b1000100010100010000101000 ;
b1000100010100010000101000 [
b1000100010100010000101000 b"
b11000 /
b11000 X
b11000 4"
b11000 U"
b0 3
b0 ^
b0 c
b0 ="
b0 T"
0B
0A
1!
#230
0!
#240
1!"
b100 <"
b100 J"
b100 L"
0|
02
b0 #
b0 ""
b0 _"
b0 *#
b101 5
b101 {
b101 s"
b101 9
b101 Y
b101 j
b101 r"
b101 "#
b100 -
b100 P
b100 k
b100 t"
b100 z"
0?
0C
b0 <
b0 x"
b0 ##
b0 &#
b100 4
b100 #"
b100 `"
b100 )#
b100 6
b100 u"
b100 %#
b100 (#
1!
#250
b0 ."
b0 P"
b0 ["
b0 1"
b0 Q"
b0 \"
0!
#260
b0 ]
b0 b
b0 f
b0 '
b0 y
b0 $"
b0 ^"
b101 <"
b101 J"
b101 L"
b0 R
b0 a
b0 v
b100 U
b100 d
b100 l
b0 e
b110000000110000010100000 '"
b110000000110000010100000 N"
b10100000 ("
b10100000 M"
b0 ,"
b0 2"
b110 3"
b110 K"
b0 (
b0 z
b0 ~
b0 ]"
b0 /"
b110 6"
b110 I"
b100000 f"
b100000 i"
0>
0@
b101 4
b101 #"
b101 `"
b101 )#
b101 6
b101 u"
b101 %#
b101 (#
b0 ,
b0 Q
b0 g
b0 r
b0 0"
b0 V"
b0 N
b0 `
b0 +
b0 O
b0 -"
b0 W"
b100 3
b100 ^
b100 c
b100 ="
b100 T"
1B
1A
b11100 .
b11100 5"
b11100 R"
b11100 c"
b11100 p"
b11100000110000000110000010100000 0
b11100000110000000110000010100000 :"
b11100000110000000110000010100000 d"
b11100000110000000110000010100000 o"
b11100001100001010111000101000010 h"
b11100001100001010111000101000010 l"
b11100001100001010111000101000010 m"
b100000 g"
b100000 n"
b11100 e"
b11100 j"
b11100 k"
1!
#270
0!
#280
0!"
1|
b1 w
b1000000000000000000000000000000 1"
b1000000000000000000000000000000 Q"
b1000000000000000000000000000000 \"
b10 '
b10 y
b10 $"
b10 ^"
12
b0 <"
b0 J"
b0 L"
1p
1o
0q
b100100 f"
b100100 i"
b100001010111000101000010 '"
b100001010111000101000010 N"
b101000010 ("
b101000010 M"
b1 ,"
b10 2"
b111 3"
b111 K"
b101 ."
b101 P"
b101 ["
b101 (
b101 z
b101 ~
b101 ]"
b101 /"
b1100 6"
b1100 I"
b11100000000001111000000000000011 h"
b11100000000001111000000000000011 l"
b11100000000001111000000000000011 m"
b100100 g"
b100100 n"
b100000 e"
b100000 j"
b100000 k"
b100000 .
b100000 5"
b100000 R"
b100000 c"
b100000 p"
b11100001100001010111000101000010 0
b11100001100001010111000101000010 :"
b11100001100001010111000101000010 d"
b11100001100001010111000101000010 o"
b110 8
b110 L
b110 x
b110 7
b110 Z
b110 h
b110 >"
b110 S"
b110000000110000010100000 )
b110000000110000010100000 V
b110000000110000010100000 &"
b110000000110000010100000 Y"
b10100000 *
b10100000 W
b10100000 n
b10100000 )"
b10100000 X"
b11111111000000011000001010011100 ;
b11111111000000011000001010011100 [
b11111111000000011000001010011100 b"
b11100 /
b11100 X
b11100 4"
b11100 U"
b101 3
b101 ^
b101 c
b101 ="
b101 T"
b0 -
b0 P
b0 k
b0 t"
b0 z"
1?
1C
1!
#290
0!
