build/test.vcd
$date
	Tue Jun 22 22:52:13 2021
$end
$version
	Icarus Verilog
$end
$timescale
	1ns
$end
$scope module tb $end
$scope module uut $end
$var wire 1 ! clk $end
$var wire 1 " rst $end
$var wire 32 # val [31:0] $end
$var wire 1 $ two_src_HZRD $end
$var wire 4 % status_ID [3:0] $end
$var wire 4 & status_EXE [3:0] $end
$var wire 4 ' src2_HZRD [3:0] $end
$var wire 4 ( src1_HZRD [3:0] $end
$var wire 24 ) signed_imm_24_EXE [23:0] $end
$var wire 12 * shifter_operand_EXE [11:0] $end
$var wire 32 + rn_val_EXE [31:0] $end
$var wire 32 , rm_val_MEM [31:0] $end
$var wire 32 - rm_val_EXE [31:0] $end
$var wire 32 . pc_ID [31:0] $end
$var wire 32 / pc_EXE [31:0] $end
$var wire 1 0 move_HZRD $end
$var wire 32 1 instruction_ID [31:0] $end
$var wire 1 2 imm_EXE $end
$var wire 1 3 hazard $end
$var wire 4 4 exe_cmd_EXE [3:0] $end
$var wire 4 5 dest_WB [3:0] $end
$var wire 4 6 dest_MEM [3:0] $end
$var wire 4 7 dest_EXE [3:0] $end
$var wire 32 8 data_WB [31:0] $end
$var wire 32 9 branch_address_IF [31:0] $end
$var wire 32 : alu_res_WB [31:0] $end
$var wire 32 ; alu_res_MEM [31:0] $end
$var wire 1 < WB_EN_WB $end
$var wire 1 = WB_EN_MEM $end
$var wire 1 > WB_EN_EXE $end
$var wire 1 ? S_EXE $end
$var wire 1 @ MEM_W_EN_MEM $end
$var wire 1 A MEM_W_EN_EXE $end
$var wire 1 B MEM_R_EN_WB $end
$var wire 1 C MEM_R_EN_MEM $end
$var wire 1 D MEM_R_EN_EXE $end
$var wire 1 E B_EXE $end
$var reg 32 F inst_count [31:0] $end
$var reg 1 G stop $end
$scope module EXE $end
$var wire 1 H MEM_EN $end
$var wire 1 ! clk $end
$var wire 1 " rst $end
$var wire 32 I val1 [31:0] $end
$var wire 32 J val2 [31:0] $end
$var wire 4 K status_bits [3:0] $end
$var wire 4 L status_ID [3:0] $end
$var wire 4 M status_EXE [3:0] $end
$var wire 24 N signed_imm_24_EXE [23:0] $end
$var wire 12 O shifter_operand_EXE [11:0] $end
$var wire 32 P rn_val_EXE [31:0] $end
$var wire 32 Q rm_val_MEM [31:0] $end
$var wire 32 R rm_val_EXE [31:0] $end
$var wire 32 S pc_EXE [31:0] $end
$var wire 1 2 imm_EXE $end
$var wire 4 T exe_cmd_EXE [3:0] $end
$var wire 4 U dest_MEM [3:0] $end
$var wire 4 V dest_EXE [3:0] $end
$var wire 32 W branch_address_IF [31:0] $end
$var wire 32 X alu_res_MEM [31:0] $end
$var wire 32 Y alu_res [31:0] $end
$var wire 1 = WB_EN_MEM $end
$var wire 1 > WB_EN_EXE $end
$var wire 1 ? S_EXE $end
$var wire 1 @ MEM_W_EN_MEM $end
$var wire 1 A MEM_W_EN_EXE $end
$var wire 1 C MEM_R_EN_MEM $end
$var wire 1 D MEM_R_EN_EXE $end
$var wire 1 Z C $end
$var wire 1 E B_EXE $end
$scope module alu $end
$var wire 1 Z c $end
$var wire 32 [ val1 [31:0] $end
$var wire 32 \ val2 [31:0] $end
$var wire 32 ] result [31:0] $end
$var wire 4 ^ EXE_CMD [3:0] $end
$var reg 4 _ status_bits [3:0] $end
$var reg 33 ` tmp [32:0] $end
$upscope $end
$scope module pr_exe_mem $end
$var wire 32 a ALU_RES_EXE [31:0] $end
$var wire 1 ! clk $end
$var wire 1 " rst $end
$var wire 1 > WB_EN_EXE $end
$var wire 32 b VAL_RM_EXE [31:0] $end
$var wire 1 A MEM_W_EN_EXE $end
$var wire 1 D MEM_R_EN_EXE $end
$var wire 4 c DEST_EXE [3:0] $end
$var reg 32 d ALU_RES_MEM [31:0] $end
$var reg 4 e DEST_MEM [3:0] $end
$var reg 1 C MEM_R_EN_MEM $end
$var reg 1 @ MEM_W_EN_MEM $end
$var reg 32 f VAL_RM_MEM [31:0] $end
$var reg 1 = WB_EN_MEM $end
$upscope $end
$scope module sr $end
$var wire 1 ! clk $end
$var wire 1 " rst $end
$var wire 4 g status_bits_in [3:0] $end
$var wire 1 ? s $end
$var reg 4 h status_bits_out [3:0] $end
$upscope $end
$scope module v2g $end
$var wire 1 H mem_en $end
$var wire 12 i shifter_oprand [11:0] $end
$var wire 5 j shift_imm [4:0] $end
$var wire 2 k shift [1:0] $end
$var wire 4 l rotate_imm [3:0] $end
$var wire 32 m rm_val [31:0] $end
$var wire 4 n rm [3:0] $end
$var wire 8 o immed_8 [7:0] $end
$var wire 1 2 imm $end
$var wire 1 p fourth $end
$var reg 32 q val2 [31:0] $end
$var integer 32 r i [31:0] $end
$upscope $end
$upscope $end
$scope module HAZARD $end
$var wire 1 = WB_EN_MEM $end
$var wire 4 s dest_MEM [3:0] $end
$var wire 1 $ two_src_HZRD $end
$var wire 4 t src2_HZRD [3:0] $end
$var wire 4 u src1_HZRD [3:0] $end
$var wire 1 0 move_HZRD $end
$var wire 4 v dest_EXE [3:0] $end
$var wire 1 > WB_EN_EXE $end
$var reg 1 3 hazard $end
$upscope $end
$scope module ID $end
$var wire 1 ! clk $end
$var wire 1 3 hazard $end
$var wire 1 w mux_cc $end
$var wire 1 " rst $end
$var wire 4 x src1_HZRD [3:0] $end
$var wire 4 y status_ID [3:0] $end
$var wire 1 $ two_src_HZRD $end
$var wire 32 z val [31:0] $end
$var wire 4 { status_EXE [3:0] $end
$var wire 4 | src2_HZRD [3:0] $end
$var wire 24 } signed_imm_24_EXE [23:0] $end
$var wire 24 ~ signed_imm_24 [23:0] $end
$var wire 12 !" shifter_operand_EXE [11:0] $end
$var wire 12 "" shifter_operand [11:0] $end
$var wire 1 #" s_ID $end
$var wire 4 $" rs [3:0] $end
$var wire 32 %" rn_val_EXE [31:0] $end
$var wire 32 &" rn_val [31:0] $end
$var wire 4 '" rn [3:0] $end
$var wire 32 (" rm_val_EXE [31:0] $end
$var wire 32 )" rm_val [31:0] $end
$var wire 4 *" rm [3:0] $end
$var wire 4 +" rd [3:0] $end
$var wire 32 ," pc_ID [31:0] $end
$var wire 32 -" pc_EXE [31:0] $end
$var wire 4 ." opcode [3:0] $end
$var wire 1 0 move_HZRD $end
$var wire 2 /" mode [1:0] $end
$var wire 32 0" instruction_ID [31:0] $end
$var wire 1 2 imm_EXE $end
$var wire 1 1" imm $end
$var wire 4 2" exe_cmd_EXE [3:0] $end
$var wire 4 3" exe_cmd [3:0] $end
$var wire 4 4" dest_WB [3:0] $end
$var wire 4 5" dest_EXE [3:0] $end
$var wire 4 6" cond [3:0] $end
$var wire 1 7" check_cc $end
$var wire 1 < WB_EN_WB $end
$var wire 1 > WB_EN_EXE $end
$var wire 1 8" WB_EN $end
$var wire 1 ? S_EXE $end
$var wire 1 9" S $end
$var wire 1 A MEM_W_EN_EXE $end
$var wire 1 :" MEM_W_EN $end
$var wire 1 D MEM_R_EN_EXE $end
$var wire 1 ;" MEM_R_EN $end
$var wire 1 E B_EXE $end
$var wire 1 <" B $end
$scope module cc $end
$var wire 4 =" cond [3:0] $end
$var wire 4 >" status_ID [3:0] $end
$var wire 1 ?" Z $end
$var wire 1 @" V $end
$var wire 1 A" N $end
$var wire 1 B" C $end
$var reg 1 7" check_cc $end
$upscope $end
$scope module ctrl $end
$var wire 1 #" S_ID $end
$var wire 2 C" mode [1:0] $end
$var wire 1 w mux_cc $end
$var wire 4 D" opcode [3:0] $end
$var reg 1 <" B $end
$var reg 1 ;" MEM_R_EN $end
$var reg 1 :" MEM_W_EN $end
$var reg 1 9" S $end
$var reg 1 8" WB_EN $end
$var reg 4 E" exe_cmd [3:0] $end
$var reg 1 0 move_HZRD $end
$upscope $end
$scope module pr_id_exe $end
$var wire 1 <" B_ID $end
$var wire 1 ;" MEM_R_EN_ID $end
$var wire 1 :" MEM_W_EN_ID $end
$var wire 1 9" S_ID $end
$var wire 1 8" WB_EN_ID $end
$var wire 1 ! clk $end
$var wire 4 F" dest_ID [3:0] $end
$var wire 4 G" exe_cmd_ID [3:0] $end
$var wire 1 E flush $end
$var wire 1 1" imm_ID $end
$var wire 1 " rst $end
$var wire 12 H" shifter_operand_ID [11:0] $end
$var wire 24 I" signed_imm_24_ID [23:0] $end
$var wire 4 J" status_ID [3:0] $end
$var wire 32 K" rn_val_ID [31:0] $end
$var wire 32 L" rm_val_ID [31:0] $end
$var wire 32 M" pc_ID [31:0] $end
$var reg 1 E B_EXE $end
$var reg 1 D MEM_R_EN_EXE $end
$var reg 1 A MEM_W_EN_EXE $end
$var reg 1 ? S_EXE $end
$var reg 1 > WB_EN_EXE $end
$var reg 4 N" dest_EXE [3:0] $end
$var reg 4 O" exe_cmd_EXE [3:0] $end
$var reg 1 2 imm_EXE $end
$var reg 32 P" pc_EXE [31:0] $end
$var reg 32 Q" rm_val_EXE [31:0] $end
$var reg 32 R" rn_val_EXE [31:0] $end
$var reg 12 S" shifter_operand_EXE [11:0] $end
$var reg 24 T" signed_imm_24_EXE [23:0] $end
$var reg 4 U" status_EXE [3:0] $end
$upscope $end
$scope module rf $end
$var wire 1 ! clk $end
$var wire 32 V" rm_val [31:0] $end
$var wire 32 W" rn_val [31:0] $end
$var wire 1 " rst $end
$var wire 4 X" src1_HZRD [3:0] $end
$var wire 4 Y" src2_HZRD [3:0] $end
$var wire 32 Z" val_ID [31:0] $end
$var wire 4 [" dest_ID [3:0] $end
$var wire 1 < WB_EN_ID $end
$var integer 32 \" i [31:0] $end
$upscope $end
$upscope $end
$scope module IF $end
$var wire 1 E B_EXE $end
$var wire 32 ]" branch_address_IF [31:0] $end
$var wire 1 ! clk $end
$var wire 1 3 hazard $end
$var wire 1 " rst $end
$var wire 32 ^" pc_next [31:0] $end
$var wire 32 _" pc_ID [31:0] $end
$var wire 32 `" pc4 [31:0] $end
$var wire 32 a" pc [31:0] $end
$var wire 32 b" instruction_ID [31:0] $end
$var wire 32 c" instruction [31:0] $end
$scope module PC $end
$var wire 1 ! clk $end
$var wire 1 3 freeze $end
$var wire 32 d" pcIn [31:0] $end
$var wire 1 " rst $end
$var reg 32 e" pcOut [31:0] $end
$upscope $end
$scope module im $end
$var wire 32 f" address [31:0] $end
$var wire 32 g" instruction [31:0] $end
$upscope $end
$scope module pr_if_id $end
$var wire 1 ! clk $end
$var wire 1 E flush $end
$var wire 1 3 freeze $end
$var wire 32 h" instruction_IF [31:0] $end
$var wire 32 i" pc_IF [31:0] $end
$var wire 1 " rst $end
$var reg 32 j" instruction_ID [31:0] $end
$var reg 32 k" pc_ID [31:0] $end
$upscope $end
$upscope $end
$scope module MEM $end
$var wire 1 C MEM_R_EN_MEM $end
$var wire 1 @ MEM_W_EN_MEM $end
$var wire 1 = WB_EN_MEM $end
$var wire 32 l" alu_res_MEM [31:0] $end
$var wire 1 ! clk $end
$var wire 4 m" dest_MEM [3:0] $end
$var wire 32 n" rm_val_MEM [31:0] $end
$var wire 1 " rst $end
$var wire 4 o" dest_WB [3:0] $end
$var wire 32 p" data_WB [31:0] $end
$var wire 32 q" data [31:0] $end
$var wire 32 r" alu_res_WB [31:0] $end
$var wire 1 < WB_EN_WB $end
$var wire 1 B MEM_R_EN_WB $end
$scope module dm $end
$var wire 1 C MEM_R_EN $end
$var wire 1 @ MEM_W_EN $end
$var wire 32 s" alu_res [31:0] $end
$var wire 1 ! clk $end
$var wire 32 t" rm_val [31:0] $end
$var wire 1 " rst $end
$var wire 32 u" data_mem [31:0] $end
$scope begin $ivl_for_loop0 $end
$var integer 32 v" j [31:0] $end
$upscope $end
$upscope $end
$scope module pr_mem_wb $end
$var wire 1 C MEM_R_EN_MEM $end
$var wire 1 = WB_EN_MEM $end
$var wire 32 w" alu_res_MEM [31:0] $end
$var wire 1 ! clk $end
$var wire 32 x" data [31:0] $end
$var wire 4 y" dest_MEM [3:0] $end
$var wire 1 " rst $end
$var reg 1 B MEM_R_EN_WB $end
$var reg 1 < WB_EN_WB $end
$var reg 32 z" alu_res_WB [31:0] $end
$var reg 32 {" data_WB [31:0] $end
$var reg 4 |" dest_WB [3:0] $end
$upscope $end
$upscope $end
$scope module WB $end
$var wire 1 B MEM_R_EN_WB $end
$var wire 1 < WB_EN_WB $end
$var wire 32 }" alu_res_WB [31:0] $end
$var wire 32 ~" data_WB [31:0] $end
$var wire 4 !# dest_WB [3:0] $end
$var wire 32 "# val [31:0] $end
$upscope $end
$upscope $end
$upscope $end
$enddefinitions $end
#0
$dumpvars
bx "#
bx !#
bx ~"
bx }"
bx |"
bx {"
bx z"
bx y"
bx x"
bx w"
b1000000 v"
bx u"
bx t"
bx s"
bx r"
bx q"
bx p"
bx o"
bx n"
bx m"
bx l"
bx k"
bx j"
b100 i"
b11100011101000000000000000010100 h"
b11100011101000000000000000010100 g"
b0 f"
b0 e"
bx d"
b11100011101000000000000000010100 c"
bx b"
b0 a"
b100 `"
bx _"
bx ^"
bx ]"
b1111 \"
bx ["
bx Z"
bx Y"
bx X"
bx W"
bx V"
bx U"
bx T"
bx S"
bx R"
bx Q"
bx P"
bx O"
bx N"
bx M"
bx L"
bx K"
bx J"
bx I"
bx H"
bx G"
bx F"
bx E"
bx D"
bx C"
xB"
xA"
x@"
x?"
bx >"
bx ="
x<"
x;"
x:"
x9"
x8"
x7"
bx 6"
bx 5"
bx 4"
bx 3"
bx 2"
x1"
bx 0"
bx /"
bx ."
bx -"
bx ,"
bx +"
bx *"
bx )"
bx ("
bx '"
bx &"
bx %"
bx $"
x#"
bx ""
bx !"
bx ~
bx }
bx |
bx {
bx z
bx y
bx x
xw
bx v
bx u
bx t
bx s
bx r
bx q
xp
bx o
bx n
bx m
bx l
bx k
bx j
bx i
bx h
bx g
bx f
bx e
bx d
bx c
bx b
bx a
bx `
bx _
bx ^
bx ]
bx \
bx [
xZ
bx Y
bx X
bx W
bx V
bx U
bx T
bx S
bx R
bx Q
bx P
bx O
bx N
bx M
bx L
bx K
bx J
bx I
xH
0G
b0 F
xE
xD
xC
xB
xA
x@
x?
x>
x=
x<
bx ;
bx :
bx 9
bx 8
bx 7
bx 6
bx 5
bx 4
x3
x2
bx 1
x0
bx /
bx .
bx -
bx ,
bx +
bx *
bx )
bx (
bx '
bx &
bx %
x$
bx #
0"
0!
$end
#10
1w
1$
b0 )"
b0 L"
b0 V"
b0 '
b0 t
b0 |
b0 Y"
b0 3"
b0 E"
b0 G"
0;"
0:"
08"
0<"
09"
00
07"
b0 Y
b0 ]
b0 a
0A"
0?"
0B"
0@"
b0 ~
b0 I"
b0 ""
b0 H"
b0 $"
b0 *"
b0 +"
b0 F"
b0 &"
b0 K"
b0 W"
b0 (
b0 u
b0 x
b0 X"
b0 '"
0#"
b0 ."
b0 D"
01"
b0 /"
b0 C"
b0 6"
b0 ="
0Z
b0 9
b0 W
b0 ]"
b0 n
0p
b0 k
b0 j
b0 o
b0 l
b0 r
b0 J
b0 \
b0 q
b100 K
b100 _
b100 g
b0 `
b100 ^"
b100 d"
0H
b0 q"
b0 u"
b0 x"
03
b0 #
b0 z
b0 Z"
b0 "#
b0 %
b0 L
b0 h
b0 y
b0 >"
b0 J"
b0 .
b0 ,"
b0 M"
b0 _"
b0 k"
b0 1
b0 0"
b0 b"
b0 j"
b0 &
b0 M
b0 {
b0 U"
b0 7
b0 V
b0 c
b0 v
b0 5"
b0 N"
b0 )
b0 N
b0 }
b0 T"
b0 *
b0 O
b0 i
b0 !"
b0 S"
02
b0 -
b0 R
b0 b
b0 m
b0 ("
b0 Q"
b0 I
b0 [
b0 +
b0 P
b0 %"
b0 R"
b0 /
b0 S
b0 -"
b0 P"
b0 4
b0 T
b0 ^
b0 2"
b0 O"
0E
0?
0A
0D
0>
b0 6
b0 U
b0 e
b0 s
b0 m"
b0 y"
b0 ,
b0 Q
b0 f
b0 n"
b0 t"
b0 ;
b0 X
b0 d
b0 l"
b0 s"
b0 w"
0@
0C
0=
0<
0B
b0 :
b0 r"
b0 z"
b0 }"
b0 8
b0 p"
b0 {"
b0 ~"
b0 5
b0 4"
b0 ["
b0 o"
b0 |"
b0 !#
b1111 \"
bx F
1"
1!
#20
0"
0!
#30
10
18"
b1 3"
b1 E"
b1 G"
0w
0$
b100 )"
b100 L"
b100 V"
b100 '
b100 t
b100 |
b100 Y"
17"
b101000000000000000010100 ~
b101000000000000000010100 I"
b10100 ""
b10100 H"
b100 *"
b1101 ."
b1101 D"
11"
b1110 6"
b1110 ="
b1000 ^"
b1000 d"
b100 .
b100 ,"
b100 M"
b100 _"
b100 k"
b11100011101000000000000000010100 1
b11100011101000000000000000010100 0"
b11100011101000000000000000010100 b"
b11100011101000000000000000010100 j"
b11100011101000000001101000000001 c"
b11100011101000000001101000000001 g"
b11100011101000000001101000000001 h"
b1000 `"
b1000 i"
b100 a"
b100 e"
b100 f"
b0 F
1!
#40
0!
#50
b10100 Y
b10100 ]
b10100 a
b0 K
b0 _
b0 g
b10100 `
b1 )"
b1 L"
b1 V"
b1 '
b1 t
b1 |
b1 Y"
b10100 J
b10100 \
b10100 q
b1100 ^"
b1100 d"
b101000000001101000000001 ~
b101000000001101000000001 I"
b101000000001 ""
b101000000001 H"
b1010 $"
b1 *"
b1 +"
b1 F"
b100 n
1p
b10100 o
b11100011101000000010000100000011 c"
b11100011101000000010000100000011 g"
b11100011101000000010000100000011 h"
b1100 `"
b1100 i"
b1000 a"
b1000 e"
b1000 f"
b1000 .
b1000 ,"
b1000 M"
b1000 _"
b1000 k"
b11100011101000000001101000000001 1
b11100011101000000001101000000001 0"
b11100011101000000001101000000001 b"
b11100011101000000001101000000001 j"
b101000000000000000010100 )
b101000000000000000010100 N
b101000000000000000010100 }
b101000000000000000010100 T"
b10100 *
b10100 O
b10100 i
b10100 !"
b10100 S"
12
b100 -
b100 R
b100 b
b100 m
b100 ("
b100 Q"
b11111110100000000000000001010100 9
b11111110100000000000000001010100 W
b11111110100000000000000001010100 ]"
b100 /
b100 S
b100 -"
b100 P"
b1 4
b1 T
b1 ^
b1 2"
b1 O"
1>
b1 F
1!
#60
0!
#70
b1000000000000 Y
b1000000000000 ]
b1000000000000 a
b1000000000000 `
b1010 r
b1000000000000 J
b1000000000000 \
b1000000000000 q
b11 )"
b11 L"
b11 V"
b11 '
b11 t
b11 |
b11 Y"
b1 n
0p
b10100 j
b1 o
b1010 l
b101000000010000100000011 ~
b101000000010000100000011 I"
b100000011 ""
b100000011 H"
b1 $"
b11 *"
b10 +"
b10 F"
b10000 ^"
b10000 d"
b100 ,
b100 Q
b100 f
b100 n"
b100 t"
b10100 ;
b10100 X
b10100 d
b10100 l"
b10100 s"
b10100 w"
1=
b1 7
b1 V
b1 c
b1 v
b1 5"
b1 N"
b101000000001101000000001 )
b101000000001101000000001 N
b101000000001101000000001 }
b101000000001101000000001 T"
b101000000001 *
b101000000001 O
b101000000001 i
b101000000001 !"
b101000000001 S"
b1 -
b1 R
b1 b
b1 m
b1 ("
b1 Q"
b11111110100000000110100000001100 9
b11111110100000000110100000001100 W
b11111110100000000110100000001100 ]"
b1000 /
b1000 S
b1000 -"
b1000 P"
b1100 .
b1100 ,"
b1100 M"
b1100 _"
b1100 k"
b11100011101000000010000100000011 1
b11100011101000000010000100000011 0"
b11100011101000000010000100000011 b"
b11100011101000000010000100000011 j"
b11100000100100100011000000000010 c"
b11100000100100100011000000000010 g"
b11100000100100100011000000000010 h"
b10000 `"
b10000 i"
b1100 a"
b1100 e"
b1100 f"
b10 F
1!
#80
0!
#90
b11000000000000000000000000000000 Y
b11000000000000000000000000000000 ]
b11000000000000000000000000000000 a
1w
1$
b1000 K
b1000 _
b1000 g
b111000000000000000000000000000000 `
b10 )"
b10 L"
b10 V"
b10 '
b10 t
b10 |
b10 Y"
13
09"
b0 3"
b0 E"
b0 G"
08"
00
b10100 ^"
b10100 d"
b100100100011000000000010 ~
b100100100011000000000010 I"
b10 ""
b10 H"
b0 $"
b10 *"
b11 +"
b11 F"
b10 &"
b10 K"
b10 W"
b10 (
b10 u
b10 x
b10 X"
b10 '"
1#"
b100 ."
b100 D"
01"
b11 n
b10 j
b11 o
b1 l
b1 r
b11000000000000000000000000000000 J
b11000000000000000000000000000000 \
b11000000000000000000000000000000 q
b10100 #
b10100 z
b10100 Z"
b10100 "#
b11100000101000000100000000000000 c"
b11100000101000000100000000000000 g"
b11100000101000000100000000000000 h"
b10100 `"
b10100 i"
b10000 a"
b10000 e"
b10000 f"
b10000 .
b10000 ,"
b10000 M"
b10000 _"
b10000 k"
b11100000100100100011000000000010 1
b11100000100100100011000000000010 0"
b11100000100100100011000000000010 b"
b11100000100100100011000000000010 j"
b10 7
b10 V
b10 c
b10 v
b10 5"
b10 N"
b101000000010000100000011 )
b101000000010000100000011 N
b101000000010000100000011 }
b101000000010000100000011 T"
b100000011 *
b100000011 O
b100000011 i
b100000011 !"
b100000011 S"
b11 -
b11 R
b11 b
b11 m
b11 ("
b11 Q"
b11111110100000001000010000011000 9
b11111110100000001000010000011000 W
b11111110100000001000010000011000 ]"
b1100 /
b1100 S
b1100 -"
b1100 P"
b1 6
b1 U
b1 e
b1 s
b1 m"
b1 y"
b1 ,
b1 Q
b1 f
b1 n"
b1 t"
b1000000000000 ;
b1000000000000 X
b1000000000000 d
b1000000000000 l"
b1000000000000 s"
b1000000000000 w"
1<
b10100 :
b10100 r"
b10100 z"
b10100 }"
b11 F
1!
#100
0!
#110
b0 Y
b0 ]
b0 a
b1000000000000 #
b1000000000000 z
b1000000000000 Z"
b1000000000000 "#
b10 n
b0 j
b10 o
b0 l
b0 r
b10 J
b10 \
b10 q
b100 K
b100 _
b100 g
b0 `
13
b1000000000000 :
b1000000000000 r"
b1000000000000 z"
b1000000000000 }"
b1 5
b1 4"
b1 ["
b1 o"
b1 |"
b1 !#
b10 6
b10 U
b10 e
b10 s
b10 m"
b10 y"
b11 ,
b11 Q
b11 f
b11 n"
b11 t"
b11000000000000000000000000000000 ;
b11000000000000000000000000000000 X
b11000000000000000000000000000000 d
b11000000000000000000000000000000 l"
b11000000000000000000000000000000 s"
b11000000000000000000000000000000 w"
b11 7
b11 V
b11 c
b11 v
b11 5"
b11 N"
b100100100011000000000010 )
b100100100011000000000010 N
b100100100011000000000010 }
b100100100011000000000010 T"
b10 *
b10 O
b10 i
b10 !"
b10 S"
02
b10 -
b10 R
b10 b
b10 m
b10 ("
b10 Q"
b10 I
b10 [
b10 +
b10 P
b10 %"
b10 R"
b11111110010010001100000000011000 9
b11111110010010001100000000011000 W
b11111110010010001100000000011000 ]"
b10000 /
b10000 S
b10000 -"
b10000 P"
b0 4
b0 T
b0 ^
b0 2"
b0 O"
0>
b100 F
1!
#120
0!
#130
18"
19"
b10 3"
b10 E"
b10 G"
0w
03
b11000000000000000000000000000000 #
b11000000000000000000000000000000 z
b11000000000000000000000000000000 Z"
b11000000000000000000000000000000 "#
b11 6
b11 U
b11 e
b11 s
b11 m"
b11 y"
b10 ,
b10 Q
b10 f
b10 n"
b10 t"
b0 ;
b0 X
b0 d
b0 l"
b0 s"
b0 w"
0=
b11000000000000000000000000000000 :
b11000000000000000000000000000000 r"
b11000000000000000000000000000000 z"
b11000000000000000000000000000000 }"
b10 5
b10 4"
b10 ["
b10 o"
b10 |"
b10 !#
1!
#140
b11000000000000000000000000000000 &"
b11000000000000000000000000000000 K"
b11000000000000000000000000000000 W"
b11000000000000000000000000000000 )"
b11000000000000000000000000000000 L"
b11000000000000000000000000000000 V"
0!
#150
b10000000000000000000000000000000 Y
b10000000000000000000000000000000 ]
b10000000000000000000000000000000 a
b10100 )"
b10100 L"
b10100 V"
b0 '
b0 t
b0 |
b0 Y"
b11 3"
b11 E"
b11 G"
18"
09"
b0 #
b0 z
b0 Z"
b0 "#
b11000000000000000000000000000000 J
b11000000000000000000000000000000 \
b11000000000000000000000000000000 q
b1010 K
b1010 _
b1010 g
b110000000000000000000000000000000 `
b101000000100000000000000 ~
b101000000100000000000000 I"
b0 ""
b0 H"
b0 *"
b100 +"
b100 F"
b10100 &"
b10100 K"
b10100 W"
b0 (
b0 u
b0 x
b0 X"
b0 '"
0#"
b101 ."
b101 D"
b11000 ^"
b11000 d"
0<
b0 :
b0 r"
b0 z"
b0 }"
b11 5
b11 4"
b11 ["
b11 o"
b11 |"
b11 !#
b11000000000000000000000000000000 -
b11000000000000000000000000000000 R
b11000000000000000000000000000000 b
b11000000000000000000000000000000 m
b11000000000000000000000000000000 ("
b11000000000000000000000000000000 Q"
b11000000000000000000000000000000 I
b11000000000000000000000000000000 [
b11000000000000000000000000000000 +
b11000000000000000000000000000000 P
b11000000000000000000000000000000 %"
b11000000000000000000000000000000 R"
b10 4
b10 T
b10 ^
b10 2"
b10 O"
1?
1>
b10100 .
b10100 ,"
b10100 M"
b10100 _"
b10100 k"
b11100000101000000100000000000000 1
b11100000101000000100000000000000 0"
b11100000101000000100000000000000 b"
b11100000101000000100000000000000 j"
b11100000010001000101000100000100 c"
b11100000010001000101000100000100 g"
b11100000010001000101000100000100 h"
b11000 `"
b11000 i"
b10100 a"
b10100 e"
b10100 f"
1!
#160
17"
1A"
1B"
b1010 %
b1010 L
b1010 h
b1010 y
b1010 >"
b1010 J"
0!
#170
1w
b100 )"
b100 L"
b100 V"
b100 '
b100 t
b100 |
b100 Y"
13
b0 3"
b0 E"
b0 G"
08"
b0 K
b0 _
b0 g
b101001 Y
b101001 ]
b101001 a
b11100 ^"
b11100 d"
b10001000101000100000100 ~
b10001000101000100000100 I"
b100000100 ""
b100000100 H"
b1 $"
b100 *"
b101 +"
b101 F"
b100 &"
b100 K"
b100 W"
b100 (
b100 u
b100 x
b100 X"
b100 '"
b10 ."
b10 D"
1Z
b0 n
b0 o
b10100 J
b10100 \
b10100 q
b101001 `
b11100000110000000110000010100000 c"
b11100000110000000110000010100000 g"
b11100000110000000110000010100000 h"
b11100 `"
b11100 i"
b11000 a"
b11000 e"
b11000 f"
b11000 .
b11000 ,"
b11000 M"
b11000 _"
b11000 k"
b11100000010001000101000100000100 1
b11100000010001000101000100000100 0"
b11100000010001000101000100000100 b"
b11100000010001000101000100000100 j"
b1010 &
b1010 M
b1010 {
b1010 U"
b100 7
b100 V
b100 c
b100 v
b100 5"
b100 N"
b101000000100000000000000 )
b101000000100000000000000 N
b101000000100000000000000 }
b101000000100000000000000 T"
b0 *
b0 O
b0 i
b0 !"
b0 S"
b10100 -
b10100 R
b10100 b
b10100 m
b10100 ("
b10100 Q"
b10100 I
b10100 [
b10100 +
b10100 P
b10100 %"
b10100 R"
b11111110100000010000000000010100 9
b11111110100000010000000000010100 W
b11111110100000010000000000010100 ]"
b10100 /
b10100 S
b10100 -"
b10100 P"
b11 4
b11 T
b11 ^
b11 2"
b11 O"
0?
b11000000000000000000000000000000 ,
b11000000000000000000000000000000 Q
b11000000000000000000000000000000 f
b11000000000000000000000000000000 n"
b11000000000000000000000000000000 t"
b10000000000000000000000000000000 ;
b10000000000000000000000000000000 X
b10000000000000000000000000000000 d
b10000000000000000000000000000000 l"
b10000000000000000000000000000000 s"
b10000000000000000000000000000000 w"
1=
b101 F
1!
#180
0!
#190
b10 r
b0 Y
b0 ]
b0 a
b10000000000000000000000000000000 #
b10000000000000000000000000000000 z
b10000000000000000000000000000000 Z"
b10000000000000000000000000000000 "#
b100 n
b10 j
b100 o
b1 l
b10000 J
b10000 \
b10000 q
b100 K
b100 _
b100 g
b0 `
13
1<
b10000000000000000000000000000000 :
b10000000000000000000000000000000 r"
b10000000000000000000000000000000 z"
b10000000000000000000000000000000 }"
b100 6
b100 U
b100 e
b100 s
b100 m"
b100 y"
b10100 ,
b10100 Q
b10100 f
b10100 n"
b10100 t"
b101001 ;
b101001 X
b101001 d
b101001 l"
b101001 s"
b101001 w"
b101 7
b101 V
b101 c
b101 v
b101 5"
b101 N"
b10001000101000100000100 )
b10001000101000100000100 N
b10001000101000100000100 }
b10001000101000100000100 T"
b100000100 *
b100000100 O
b100000100 i
b100000100 !"
b100000100 S"
b100 -
b100 R
b100 b
b100 m
b100 ("
b100 Q"
b100 I
b100 [
b100 +
b100 P
b100 %"
b100 R"
b1000100010100010000101000 9
b1000100010100010000101000 W
b1000100010100010000101000 ]"
b11000 /
b11000 S
b11000 -"
b11000 P"
b0 4
b0 T
b0 ^
b0 2"
b0 O"
0>
b110 F
1!
#200
0!
#210
18"
b100 3"
b100 E"
b100 G"
0w
03
b101001 #
b101001 z
b101001 Z"
b101001 "#
b101 6
b101 U
b101 e
b101 s
b101 m"
b101 y"
b100 ,
b100 Q
b100 f
b100 n"
b100 t"
b0 ;
b0 X
b0 d
b0 l"
b0 s"
b0 w"
0=
b101001 :
b101001 r"
b101001 z"
b101001 }"
b100 5
b100 4"
b100 ["
b100 o"
b100 |"
b100 !#
1!
#220
b101001 &"
b101001 K"
b101001 W"
b101001 )"
b101001 L"
b101001 V"
0!
