build/test.vcd
$date
	Tue Jun 22 14:26:53 2021
$end
$version
	Icarus Verilog
$end
$timescale
	1ns
$end
$scope module tb $end
$scope module uut $end
$var wire 1 ! clk $end
$var wire 32 " i [31:0] $end
$var wire 1 # rst $end
$var wire 32 $ val [31:0] $end
$var wire 1 % two_src_HZRD $end
$var wire 4 & status_ID [3:0] $end
$var wire 4 ' status_EXE [3:0] $end
$var wire 4 ( src2_HZRD [3:0] $end
$var wire 4 ) src1_HZRD [3:0] $end
$var wire 24 * signed_imm_24_EXE [23:0] $end
$var wire 12 + shifter_operand_EXE [11:0] $end
$var wire 32 , rn_val_EXE [31:0] $end
$var wire 32 - rm_val_MEM [31:0] $end
$var wire 32 . rm_val_EXE [31:0] $end
$var wire 32 / pc_ID [31:0] $end
$var wire 32 0 pc_EXE [31:0] $end
$var wire 1 1 move_HZRD $end
$var wire 32 2 instruction_ID [31:0] $end
$var wire 1 3 imm_EXE $end
$var wire 1 4 hazard $end
$var wire 4 5 exe_cmd_EXE [3:0] $end
$var wire 4 6 dest_WB [3:0] $end
$var wire 4 7 dest_MEM [3:0] $end
$var wire 4 8 dest_EXE [3:0] $end
$var wire 32 9 data_WB [31:0] $end
$var wire 32 : branch_address_IF [31:0] $end
$var wire 32 ; alu_res_WB [31:0] $end
$var wire 32 < alu_res_MEM [31:0] $end
$var wire 1 = WB_EN_WB $end
$var wire 1 > WB_EN_MEM $end
$var wire 1 ? WB_EN_EXE $end
$var wire 1 @ S_EXE $end
$var wire 1 A MEM_W_EN_MEM $end
$var wire 1 B MEM_W_EN_EXE $end
$var wire 1 C MEM_R_EN_WB $end
$var wire 1 D MEM_R_EN_MEM $end
$var wire 1 E MEM_R_EN_EXE $end
$var wire 1 F B_EXE $end
$scope module EXE $end
$var wire 1 G MEM_EN $end
$var wire 1 ! clk $end
$var wire 1 # rst $end
$var wire 32 H val1 [31:0] $end
$var wire 32 I val2 [31:0] $end
$var wire 4 J status_bits [3:0] $end
$var wire 4 K status_ID [3:0] $end
$var wire 4 L status_EXE [3:0] $end
$var wire 24 M signed_imm_24_EXE [23:0] $end
$var wire 12 N shifter_operand_EXE [11:0] $end
$var wire 32 O rn_val_EXE [31:0] $end
$var wire 32 P rm_val_MEM [31:0] $end
$var wire 32 Q rm_val_EXE [31:0] $end
$var wire 32 R pc_EXE [31:0] $end
$var wire 1 3 imm_EXE $end
$var wire 4 S exe_cmd_EXE [3:0] $end
$var wire 4 T dest_MEM [3:0] $end
$var wire 4 U dest_EXE [3:0] $end
$var wire 32 V branch_address_IF [31:0] $end
$var wire 32 W alu_res_MEM [31:0] $end
$var wire 32 X alu_res [31:0] $end
$var wire 1 > WB_EN_MEM $end
$var wire 1 ? WB_EN_EXE $end
$var wire 1 @ S_EXE $end
$var wire 1 A MEM_W_EN_MEM $end
$var wire 1 B MEM_W_EN_EXE $end
$var wire 1 D MEM_R_EN_MEM $end
$var wire 1 E MEM_R_EN_EXE $end
$var wire 1 Y C $end
$var wire 1 F B_EXE $end
$scope module alu $end
$var wire 1 Y c $end
$var wire 32 Z val1 [31:0] $end
$var wire 32 [ val2 [31:0] $end
$var wire 32 \ result [31:0] $end
$var wire 4 ] EXE_CMD [3:0] $end
$var reg 4 ^ status_bits [3:0] $end
$var reg 33 _ tmp [32:0] $end
$upscope $end
$scope module pr_exe_mem $end
$var wire 32 ` ALU_RES_EXE [31:0] $end
$var wire 1 ! clk $end
$var wire 1 # rst $end
$var wire 1 ? WB_EN_EXE $end
$var wire 32 a VAL_RM_EXE [31:0] $end
$var wire 1 B MEM_W_EN_EXE $end
$var wire 1 E MEM_R_EN_EXE $end
$var wire 4 b DEST_EXE [3:0] $end
$var reg 32 c ALU_RES_MEM [31:0] $end
$var reg 4 d DEST_MEM [3:0] $end
$var reg 1 D MEM_R_EN_MEM $end
$var reg 1 A MEM_W_EN_MEM $end
$var reg 32 e VAL_RM_MEM [31:0] $end
$var reg 1 > WB_EN_MEM $end
$upscope $end
$scope module sr $end
$var wire 1 ! clk $end
$var wire 1 # rst $end
$var wire 4 f status_bits_in [3:0] $end
$var wire 1 @ s $end
$var reg 4 g status_bits_out [3:0] $end
$upscope $end
$scope module v2g $end
$var wire 1 G mem_en $end
$var wire 12 h shifter_oprand [11:0] $end
$var wire 5 i shift_imm [4:0] $end
$var wire 2 j shift [1:0] $end
$var wire 4 k rotate_imm [3:0] $end
$var wire 32 l rm_val [31:0] $end
$var wire 4 m rm [3:0] $end
$var wire 8 n immed_8 [7:0] $end
$var wire 1 3 imm $end
$var wire 1 o fourth $end
$var reg 32 p val2 [31:0] $end
$var integer 32 q i [31:0] $end
$upscope $end
$upscope $end
$scope module HAZARD $end
$var wire 1 > WB_EN_MEM $end
$var wire 4 r dest_MEM [3:0] $end
$var wire 1 % two_src_HZRD $end
$var wire 4 s src2_HZRD [3:0] $end
$var wire 4 t src1_HZRD [3:0] $end
$var wire 1 1 move_HZRD $end
$var wire 4 u dest_EXE [3:0] $end
$var wire 1 ? WB_EN_EXE $end
$var reg 1 4 hazard $end
$upscope $end
$scope module ID $end
$var wire 1 ! clk $end
$var wire 1 4 hazard $end
$var wire 1 v mux_cc $end
$var wire 1 # rst $end
$var wire 4 w src1_HZRD [3:0] $end
$var wire 4 x status_ID [3:0] $end
$var wire 1 % two_src_HZRD $end
$var wire 32 y val [31:0] $end
$var wire 4 z status_EXE [3:0] $end
$var wire 4 { src2_HZRD [3:0] $end
$var wire 24 | signed_imm_24_EXE [23:0] $end
$var wire 24 } signed_imm_24 [23:0] $end
$var wire 12 ~ shifter_operand_EXE [11:0] $end
$var wire 12 !" shifter_operand [11:0] $end
$var wire 1 "" s_ID $end
$var wire 4 #" rs [3:0] $end
$var wire 32 $" rn_val_EXE [31:0] $end
$var wire 32 %" rn_val [31:0] $end
$var wire 4 &" rn [3:0] $end
$var wire 32 '" rm_val_EXE [31:0] $end
$var wire 32 (" rm_val [31:0] $end
$var wire 4 )" rm [3:0] $end
$var wire 4 *" rd [3:0] $end
$var wire 32 +" pc_ID [31:0] $end
$var wire 32 ," pc_EXE [31:0] $end
$var wire 4 -" opcode [3:0] $end
$var wire 1 1 move_HZRD $end
$var wire 2 ." mode [1:0] $end
$var wire 32 /" instruction_ID [31:0] $end
$var wire 1 3 imm_EXE $end
$var wire 1 0" imm $end
$var wire 4 1" exe_cmd_EXE [3:0] $end
$var wire 4 2" exe_cmd [3:0] $end
$var wire 4 3" dest_WB [3:0] $end
$var wire 4 4" dest_EXE [3:0] $end
$var wire 4 5" cond [3:0] $end
$var wire 1 6" check_cc $end
$var wire 1 = WB_EN_WB $end
$var wire 1 ? WB_EN_EXE $end
$var wire 1 7" WB_EN $end
$var wire 1 @ S_EXE $end
$var wire 1 8" S $end
$var wire 1 B MEM_W_EN_EXE $end
$var wire 1 9" MEM_W_EN $end
$var wire 1 E MEM_R_EN_EXE $end
$var wire 1 :" MEM_R_EN $end
$var wire 1 F B_EXE $end
$var wire 1 ;" B $end
$scope module cc $end
$var wire 4 <" cond [3:0] $end
$var wire 4 =" status_ID [3:0] $end
$var wire 1 >" Z $end
$var wire 1 ?" V $end
$var wire 1 @" N $end
$var wire 1 A" C $end
$var reg 1 6" check_cc $end
$upscope $end
$scope module ctrl $end
$var wire 1 "" S_ID $end
$var wire 2 B" mode [1:0] $end
$var wire 1 v mux_cc $end
$var wire 4 C" opcode [3:0] $end
$var reg 1 ;" B $end
$var reg 1 :" MEM_R_EN $end
$var reg 1 9" MEM_W_EN $end
$var reg 1 8" S $end
$var reg 1 7" WB_EN $end
$var reg 4 D" exe_cmd [3:0] $end
$var reg 1 1 move_HZRD $end
$upscope $end
$scope module pr_id_exe $end
$var wire 1 ;" B_ID $end
$var wire 1 :" MEM_R_EN_ID $end
$var wire 1 9" MEM_W_EN_ID $end
$var wire 1 8" S_ID $end
$var wire 1 7" WB_EN_ID $end
$var wire 1 ! clk $end
$var wire 4 E" dest_ID [3:0] $end
$var wire 4 F" exe_cmd_ID [3:0] $end
$var wire 1 F flush $end
$var wire 1 0" imm_ID $end
$var wire 1 # rst $end
$var wire 12 G" shifter_operand_ID [11:0] $end
$var wire 24 H" signed_imm_24_ID [23:0] $end
$var wire 4 I" status_ID [3:0] $end
$var wire 32 J" rn_val_ID [31:0] $end
$var wire 32 K" rm_val_ID [31:0] $end
$var wire 32 L" pc_ID [31:0] $end
$var reg 1 F B_EXE $end
$var reg 1 E MEM_R_EN_EXE $end
$var reg 1 B MEM_W_EN_EXE $end
$var reg 1 @ S_EXE $end
$var reg 1 ? WB_EN_EXE $end
$var reg 4 M" dest_EXE [3:0] $end
$var reg 4 N" exe_cmd_EXE [3:0] $end
$var reg 1 3 imm_EXE $end
$var reg 32 O" pc_EXE [31:0] $end
$var reg 32 P" rm_val_EXE [31:0] $end
$var reg 32 Q" rn_val_EXE [31:0] $end
$var reg 12 R" shifter_operand_EXE [11:0] $end
$var reg 24 S" signed_imm_24_EXE [23:0] $end
$var reg 4 T" status_EXE [3:0] $end
$upscope $end
$scope module rf $end
$var wire 1 ! clk $end
$var wire 32 U" rm_val [31:0] $end
$var wire 32 V" rn_val [31:0] $end
$var wire 1 # rst $end
$var wire 4 W" src1_HZRD [3:0] $end
$var wire 4 X" src2_HZRD [3:0] $end
$var wire 32 Y" val_ID [31:0] $end
$var wire 4 Z" dest_ID [3:0] $end
$var wire 1 = WB_EN_ID $end
$var integer 32 [" i [31:0] $end
$upscope $end
$upscope $end
$scope module IF $end
$var wire 1 F B_EXE $end
$var wire 32 \" branch_address_IF [31:0] $end
$var wire 1 ! clk $end
$var wire 1 4 hazard $end
$var wire 1 # rst $end
$var wire 32 ]" pc_next [31:0] $end
$var wire 32 ^" pc_ID [31:0] $end
$var wire 32 _" pc4 [31:0] $end
$var wire 32 `" pc [31:0] $end
$var wire 32 a" instruction_ID [31:0] $end
$var wire 32 b" instruction [31:0] $end
$scope module PC $end
$var wire 1 ! clk $end
$var wire 1 4 freeze $end
$var wire 32 c" pcIn [31:0] $end
$var wire 1 # rst $end
$var reg 32 d" pcOut [31:0] $end
$upscope $end
$scope module im $end
$var wire 32 e" address [31:0] $end
$var wire 32 f" instruction [31:0] $end
$upscope $end
$scope module pr_if_id $end
$var wire 1 ! clk $end
$var wire 1 F flush $end
$var wire 1 4 freeze $end
$var wire 32 g" instruction_IF [31:0] $end
$var wire 32 h" pc_IF [31:0] $end
$var wire 1 # rst $end
$var reg 32 i" instruction_ID [31:0] $end
$var reg 32 j" pc_ID [31:0] $end
$upscope $end
$upscope $end
$scope module MEM $end
$var wire 1 D MEM_R_EN_MEM $end
$var wire 1 A MEM_W_EN_MEM $end
$var wire 1 > WB_EN_MEM $end
$var wire 32 k" alu_res_MEM [31:0] $end
$var wire 1 ! clk $end
$var wire 4 l" dest_MEM [3:0] $end
$var wire 32 m" rm_val_MEM [31:0] $end
$var wire 1 # rst $end
$var wire 4 n" dest_WB [3:0] $end
$var wire 32 o" data_WB [31:0] $end
$var wire 32 p" data [31:0] $end
$var wire 32 q" alu_res_WB [31:0] $end
$var wire 1 = WB_EN_WB $end
$var wire 1 C MEM_R_EN_WB $end
$scope module dm $end
$var wire 1 D MEM_R_EN $end
$var wire 1 A MEM_W_EN $end
$var wire 32 r" alu_res [31:0] $end
$var wire 1 ! clk $end
$var wire 32 s" rm_val [31:0] $end
$var wire 1 # rst $end
$var wire 32 t" data_mem [31:0] $end
$scope begin $ivl_for_loop0 $end
$var integer 32 u" j [31:0] $end
$upscope $end
$upscope $end
$scope module pr_mem_wb $end
$var wire 1 D MEM_R_EN_MEM $end
$var wire 1 > WB_EN_MEM $end
$var wire 32 v" alu_res_MEM [31:0] $end
$var wire 1 ! clk $end
$var wire 32 w" data [31:0] $end
$var wire 4 x" dest_MEM [3:0] $end
$var wire 1 # rst $end
$var reg 1 C MEM_R_EN_WB $end
$var reg 1 = WB_EN_WB $end
$var reg 32 y" alu_res_WB [31:0] $end
$var reg 32 z" data_WB [31:0] $end
$var reg 4 {" dest_WB [3:0] $end
$upscope $end
$upscope $end
$scope module WB $end
$var wire 1 C MEM_R_EN_WB $end
$var wire 1 = WB_EN_WB $end
$var wire 32 |" alu_res_WB [31:0] $end
$var wire 32 }" data_WB [31:0] $end
$var wire 4 ~" dest_WB [3:0] $end
$var wire 32 !# val [31:0] $end
$upscope $end
$upscope $end
$upscope $end
$enddefinitions $end
#0
$dumpvars
bx !#
bx ~"
bx }"
bx |"
bx {"
bx z"
bx y"
bx x"
bx w"
bx v"
bx u"
bx t"
bx s"
bx r"
bx q"
bx p"
bx o"
bx n"
bx m"
bx l"
bx k"
bx j"
bx i"
b100 h"
b11100011101000000000000000010100 g"
b11100011101000000000000000010100 f"
b0 e"
b0 d"
bx c"
b11100011101000000000000000010100 b"
bx a"
b0 `"
b100 _"
bx ^"
bx ]"
bx \"
b1111 ["
bx Z"
bx Y"
bx X"
bx W"
bx V"
bx U"
bx T"
bx S"
bx R"
bx Q"
bx P"
bx O"
bx N"
bx M"
bx L"
bx K"
bx J"
bx I"
bx H"
bx G"
bx F"
bx E"
bx D"
bx C"
bx B"
xA"
x@"
x?"
x>"
bx ="
bx <"
x;"
x:"
x9"
x8"
x7"
x6"
bx 5"
bx 4"
bx 3"
bx 2"
bx 1"
x0"
bx /"
bx ."
bx -"
bx ,"
bx +"
bx *"
bx )"
bx ("
bx '"
bx &"
bx %"
bx $"
bx #"
x""
bx !"
bx ~
bx }
bx |
bx {
bx z
bx y
bx x
bx w
xv
bx u
bx t
bx s
bx r
bx q
bx p
xo
bx n
bx m
bx l
bx k
bx j
bx i
bx h
bx g
bx f
bx e
bx d
bx c
bx b
bx a
bx `
bx _
bx ^
bx ]
bx \
bx [
bx Z
xY
bx X
bx W
bx V
bx U
bx T
bx S
bx R
bx Q
bx P
bx O
bx N
bx M
bx L
bx K
bx J
bx I
bx H
xG
xF
xE
xD
xC
xB
xA
x@
x?
x>
x=
bx <
bx ;
bx :
bx 9
bx 8
bx 7
bx 6
bx 5
x4
x3
bx 2
x1
bx 0
bx /
bx .
bx -
bx ,
bx +
bx *
bx )
bx (
bx '
bx &
x%
bx $
0#
b0 "
0!
$end
#10
1v
1%
b0 ("
b0 K"
b0 U"
b0 (
b0 s
b0 {
b0 X"
b0 2"
b0 D"
b0 F"
0:"
09"
07"
0;"
08"
01
06"
b0 X
b0 \
b0 `
0@"
0>"
0A"
0?"
b0 }
b0 H"
b0 !"
b0 G"
b0 #"
b0 )"
b0 *"
b0 E"
b0 %"
b0 J"
b0 V"
b0 )
b0 t
b0 w
b0 W"
b0 &"
0""
b0 -"
b0 C"
00"
b0 ."
b0 B"
b0 5"
b0 <"
0Y
b0 :
b0 V
b0 \"
b0 m
0o
b0 j
b0 i
b0 n
b0 k
b0 q
b0 I
b0 [
b0 p
b100 J
b100 ^
b100 f
b0 _
b100 ]"
b100 c"
0G
b0 p"
b0 t"
b0 w"
04
b0 $
b0 y
b0 Y"
b0 !#
b0 &
b0 K
b0 g
b0 x
b0 ="
b0 I"
b0 /
b0 +"
b0 L"
b0 ^"
b0 j"
b0 2
b0 /"
b0 a"
b0 i"
b0 '
b0 L
b0 z
b0 T"
b0 8
b0 U
b0 b
b0 u
b0 4"
b0 M"
b0 *
b0 M
b0 |
b0 S"
b0 +
b0 N
b0 h
b0 ~
b0 R"
03
b0 .
b0 Q
b0 a
b0 l
b0 '"
b0 P"
b0 H
b0 Z
b0 ,
b0 O
b0 $"
b0 Q"
b0 0
b0 R
b0 ,"
b0 O"
b0 5
b0 S
b0 ]
b0 1"
b0 N"
0F
0@
0B
0E
0?
b0 7
b0 T
b0 d
b0 r
b0 l"
b0 x"
b0 -
b0 P
b0 e
b0 m"
b0 s"
b0 <
b0 W
b0 c
b0 k"
b0 r"
b0 v"
0A
0D
0>
0=
0C
b0 ;
b0 q"
b0 y"
b0 |"
b0 9
b0 o"
b0 z"
b0 }"
b0 6
b0 3"
b0 Z"
b0 n"
b0 {"
b0 ~"
b1000000 u"
b1111 ["
1#
b1 "
1!
#20
0#
0!
#30
11
17"
b1 2"
b1 D"
b1 F"
0v
0%
b100 ("
b100 K"
b100 U"
b100 (
b100 s
b100 {
b100 X"
16"
b101000000000000000010100 }
b101000000000000000010100 H"
b10100 !"
b10100 G"
b100 )"
b1101 -"
b1101 C"
10"
b1110 5"
b1110 <"
b1000 ]"
b1000 c"
b100 /
b100 +"
b100 L"
b100 ^"
b100 j"
b11100011101000000000000000010100 2
b11100011101000000000000000010100 /"
b11100011101000000000000000010100 a"
b11100011101000000000000000010100 i"
b11100011101000000001101000000001 b"
b11100011101000000001101000000001 f"
b11100011101000000001101000000001 g"
b1000 _"
b1000 h"
b100 `"
b100 d"
b100 e"
b10 "
1!
#40
0!
#50
b10100 X
b10100 \
b10100 `
b0 J
b0 ^
b0 f
b10100 _
b1 ("
b1 K"
b1 U"
b1 (
b1 s
b1 {
b1 X"
b10100 I
b10100 [
b10100 p
b1100 ]"
b1100 c"
b101000000001101000000001 }
b101000000001101000000001 H"
b101000000001 !"
b101000000001 G"
b1010 #"
b1 )"
b1 *"
b1 E"
b100 m
1o
b10100 n
b11100011101000000010000100000011 b"
b11100011101000000010000100000011 f"
b11100011101000000010000100000011 g"
b1100 _"
b1100 h"
b1000 `"
b1000 d"
b1000 e"
b1000 /
b1000 +"
b1000 L"
b1000 ^"
b1000 j"
b11100011101000000001101000000001 2
b11100011101000000001101000000001 /"
b11100011101000000001101000000001 a"
b11100011101000000001101000000001 i"
b101000000000000000010100 *
b101000000000000000010100 M
b101000000000000000010100 |
b101000000000000000010100 S"
b10100 +
b10100 N
b10100 h
b10100 ~
b10100 R"
13
b100 .
b100 Q
b100 a
b100 l
b100 '"
b100 P"
b11111110100000000000000001010100 :
b11111110100000000000000001010100 V
b11111110100000000000000001010100 \"
b100 0
b100 R
b100 ,"
b100 O"
b1 5
b1 S
b1 ]
b1 1"
b1 N"
1?
b11 "
1!
#60
0!
#70
b1000000000000 X
b1000000000000 \
b1000000000000 `
b1000000000000 _
b1010 q
b1000000000000 I
b1000000000000 [
b1000000000000 p
b11 ("
b11 K"
b11 U"
b11 (
b11 s
b11 {
b11 X"
b1 m
0o
b10100 i
b1 n
b1010 k
b101000000010000100000011 }
b101000000010000100000011 H"
b100000011 !"
b100000011 G"
b1 #"
b11 )"
b10 *"
b10 E"
b10000 ]"
b10000 c"
b100 -
b100 P
b100 e
b100 m"
b100 s"
b10100 <
b10100 W
b10100 c
b10100 k"
b10100 r"
b10100 v"
1>
b1 8
b1 U
b1 b
b1 u
b1 4"
b1 M"
b101000000001101000000001 *
b101000000001101000000001 M
b101000000001101000000001 |
b101000000001101000000001 S"
b101000000001 +
b101000000001 N
b101000000001 h
b101000000001 ~
b101000000001 R"
b1 .
b1 Q
b1 a
b1 l
b1 '"
b1 P"
b11111110100000000110100000001100 :
b11111110100000000110100000001100 V
b11111110100000000110100000001100 \"
b1000 0
b1000 R
b1000 ,"
b1000 O"
b1100 /
b1100 +"
b1100 L"
b1100 ^"
b1100 j"
b11100011101000000010000100000011 2
b11100011101000000010000100000011 /"
b11100011101000000010000100000011 a"
b11100011101000000010000100000011 i"
b11100000100100100011000000000010 b"
b11100000100100100011000000000010 f"
b11100000100100100011000000000010 g"
b10000 _"
b10000 h"
b1100 `"
b1100 d"
b1100 e"
b100 "
1!
#80
0!
#90
b11000000000000000000000000000000 X
b11000000000000000000000000000000 \
b11000000000000000000000000000000 `
1v
1%
b1000 J
b1000 ^
b1000 f
b111000000000000000000000000000000 _
b10 ("
b10 K"
b10 U"
b10 (
b10 s
b10 {
b10 X"
14
08"
b0 2"
b0 D"
b0 F"
07"
01
b10100 ]"
b10100 c"
b100100100011000000000010 }
b100100100011000000000010 H"
b10 !"
b10 G"
b0 #"
b10 )"
b11 *"
b11 E"
b10 %"
b10 J"
b10 V"
b10 )
b10 t
b10 w
b10 W"
b10 &"
1""
b100 -"
b100 C"
00"
b11 m
b10 i
b11 n
b1 k
b1 q
b11000000000000000000000000000000 I
b11000000000000000000000000000000 [
b11000000000000000000000000000000 p
b10100 $
b10100 y
b10100 Y"
b10100 !#
b11100000101000000100000000000000 b"
b11100000101000000100000000000000 f"
b11100000101000000100000000000000 g"
b10100 _"
b10100 h"
b10000 `"
b10000 d"
b10000 e"
b10000 /
b10000 +"
b10000 L"
b10000 ^"
b10000 j"
b11100000100100100011000000000010 2
b11100000100100100011000000000010 /"
b11100000100100100011000000000010 a"
b11100000100100100011000000000010 i"
b10 8
b10 U
b10 b
b10 u
b10 4"
b10 M"
b101000000010000100000011 *
b101000000010000100000011 M
b101000000010000100000011 |
b101000000010000100000011 S"
b100000011 +
b100000011 N
b100000011 h
b100000011 ~
b100000011 R"
b11 .
b11 Q
b11 a
b11 l
b11 '"
b11 P"
b11111110100000001000010000011000 :
b11111110100000001000010000011000 V
b11111110100000001000010000011000 \"
b1100 0
b1100 R
b1100 ,"
b1100 O"
b1 7
b1 T
b1 d
b1 r
b1 l"
b1 x"
b1 -
b1 P
b1 e
b1 m"
b1 s"
b1000000000000 <
b1000000000000 W
b1000000000000 c
b1000000000000 k"
b1000000000000 r"
b1000000000000 v"
1=
b10100 ;
b10100 q"
b10100 y"
b10100 |"
b101 "
1!
#100
0!
#110
b0 X
b0 \
b0 `
b1000000000000 $
b1000000000000 y
b1000000000000 Y"
b1000000000000 !#
b10 m
b0 i
b10 n
b0 k
b0 q
b10 I
b10 [
b10 p
b100 J
b100 ^
b100 f
b0 _
14
b1000000000000 ;
b1000000000000 q"
b1000000000000 y"
b1000000000000 |"
b1 6
b1 3"
b1 Z"
b1 n"
b1 {"
b1 ~"
b10 7
b10 T
b10 d
b10 r
b10 l"
b10 x"
b11 -
b11 P
b11 e
b11 m"
b11 s"
b11000000000000000000000000000000 <
b11000000000000000000000000000000 W
b11000000000000000000000000000000 c
b11000000000000000000000000000000 k"
b11000000000000000000000000000000 r"
b11000000000000000000000000000000 v"
b11 8
b11 U
b11 b
b11 u
b11 4"
b11 M"
b100100100011000000000010 *
b100100100011000000000010 M
b100100100011000000000010 |
b100100100011000000000010 S"
b10 +
b10 N
b10 h
b10 ~
b10 R"
03
b10 .
b10 Q
b10 a
b10 l
b10 '"
b10 P"
b10 H
b10 Z
b10 ,
b10 O
b10 $"
b10 Q"
b11111110010010001100000000011000 :
b11111110010010001100000000011000 V
b11111110010010001100000000011000 \"
b10000 0
b10000 R
b10000 ,"
b10000 O"
b0 5
b0 S
b0 ]
b0 1"
b0 N"
0?
b110 "
1!
#120
0!
#130
17"
18"
b10 2"
b10 D"
b10 F"
0v
04
b11000000000000000000000000000000 $
b11000000000000000000000000000000 y
b11000000000000000000000000000000 Y"
b11000000000000000000000000000000 !#
b11 7
b11 T
b11 d
b11 r
b11 l"
b11 x"
b10 -
b10 P
b10 e
b10 m"
b10 s"
b0 <
b0 W
b0 c
b0 k"
b0 r"
b0 v"
0>
b11000000000000000000000000000000 ;
b11000000000000000000000000000000 q"
b11000000000000000000000000000000 y"
b11000000000000000000000000000000 |"
b10 6
b10 3"
b10 Z"
b10 n"
b10 {"
b10 ~"
b111 "
1!
#140
b11000000000000000000000000000000 %"
b11000000000000000000000000000000 J"
b11000000000000000000000000000000 V"
b11000000000000000000000000000000 ("
b11000000000000000000000000000000 K"
b11000000000000000000000000000000 U"
0!
#150
b10000000000000000000000000000000 X
b10000000000000000000000000000000 \
b10000000000000000000000000000000 `
b10100 ("
b10100 K"
b10100 U"
b0 (
b0 s
b0 {
b0 X"
b11 2"
b11 D"
b11 F"
17"
08"
b0 $
b0 y
b0 Y"
b0 !#
b11000000000000000000000000000000 I
b11000000000000000000000000000000 [
b11000000000000000000000000000000 p
b1010 J
b1010 ^
b1010 f
b110000000000000000000000000000000 _
b101000000100000000000000 }
b101000000100000000000000 H"
b0 !"
b0 G"
b0 )"
b100 *"
b100 E"
b10100 %"
b10100 J"
b10100 V"
b0 )
b0 t
b0 w
b0 W"
b0 &"
0""
b101 -"
b101 C"
b11000 ]"
b11000 c"
0=
b0 ;
b0 q"
b0 y"
b0 |"
b11 6
b11 3"
b11 Z"
b11 n"
b11 {"
b11 ~"
b11000000000000000000000000000000 .
b11000000000000000000000000000000 Q
b11000000000000000000000000000000 a
b11000000000000000000000000000000 l
b11000000000000000000000000000000 '"
b11000000000000000000000000000000 P"
b11000000000000000000000000000000 H
b11000000000000000000000000000000 Z
b11000000000000000000000000000000 ,
b11000000000000000000000000000000 O
b11000000000000000000000000000000 $"
b11000000000000000000000000000000 Q"
b10 5
b10 S
b10 ]
b10 1"
b10 N"
1@
1?
b10100 /
b10100 +"
b10100 L"
b10100 ^"
b10100 j"
b11100000101000000100000000000000 2
b11100000101000000100000000000000 /"
b11100000101000000100000000000000 a"
b11100000101000000100000000000000 i"
b11100000010001000101000100000100 b"
b11100000010001000101000100000100 f"
b11100000010001000101000100000100 g"
b11000 _"
b11000 h"
b10100 `"
b10100 d"
b10100 e"
b1000 "
1!
#160
1@"
1A"
b1010 &
b1010 K
b1010 g
b1010 x
b1010 ="
b1010 I"
0!
#170
1v
b100 ("
b100 K"
b100 U"
b100 (
b100 s
b100 {
b100 X"
14
b0 2"
b0 D"
b0 F"
07"
b0 J
b0 ^
b0 f
b101001 X
b101001 \
b101001 `
b11100 ]"
b11100 c"
b10001000101000100000100 }
b10001000101000100000100 H"
b100000100 !"
b100000100 G"
b1 #"
b100 )"
b101 *"
b101 E"
b100 %"
b100 J"
b100 V"
b100 )
b100 t
b100 w
b100 W"
b100 &"
b10 -"
b10 C"
1Y
b0 m
b0 n
b10100 I
b10100 [
b10100 p
b101001 _
b11100000110000000110000010100000 b"
b11100000110000000110000010100000 f"
b11100000110000000110000010100000 g"
b11100 _"
b11100 h"
b11000 `"
b11000 d"
b11000 e"
b11000 /
b11000 +"
b11000 L"
b11000 ^"
b11000 j"
b11100000010001000101000100000100 2
b11100000010001000101000100000100 /"
b11100000010001000101000100000100 a"
b11100000010001000101000100000100 i"
b1010 '
b1010 L
b1010 z
b1010 T"
b100 8
b100 U
b100 b
b100 u
b100 4"
b100 M"
b101000000100000000000000 *
b101000000100000000000000 M
b101000000100000000000000 |
b101000000100000000000000 S"
b0 +
b0 N
b0 h
b0 ~
b0 R"
b10100 .
b10100 Q
b10100 a
b10100 l
b10100 '"
b10100 P"
b10100 H
b10100 Z
b10100 ,
b10100 O
b10100 $"
b10100 Q"
b11111110100000010000000000010100 :
b11111110100000010000000000010100 V
b11111110100000010000000000010100 \"
b10100 0
b10100 R
b10100 ,"
b10100 O"
b11 5
b11 S
b11 ]
b11 1"
b11 N"
0@
b11000000000000000000000000000000 -
b11000000000000000000000000000000 P
b11000000000000000000000000000000 e
b11000000000000000000000000000000 m"
b11000000000000000000000000000000 s"
b10000000000000000000000000000000 <
b10000000000000000000000000000000 W
b10000000000000000000000000000000 c
b10000000000000000000000000000000 k"
b10000000000000000000000000000000 r"
b10000000000000000000000000000000 v"
1>
b1001 "
1!
#180
0!
#190
b10 q
b0 X
b0 \
b0 `
b10000000000000000000000000000000 $
b10000000000000000000000000000000 y
b10000000000000000000000000000000 Y"
b10000000000000000000000000000000 !#
b100 m
b10 i
b100 n
b1 k
b10000 I
b10000 [
b10000 p
b100 J
b100 ^
b100 f
b0 _
14
1=
b10000000000000000000000000000000 ;
b10000000000000000000000000000000 q"
b10000000000000000000000000000000 y"
b10000000000000000000000000000000 |"
b100 7
b100 T
b100 d
b100 r
b100 l"
b100 x"
b10100 -
b10100 P
b10100 e
b10100 m"
b10100 s"
b101001 <
b101001 W
b101001 c
b101001 k"
b101001 r"
b101001 v"
b101 8
b101 U
b101 b
b101 u
b101 4"
b101 M"
b10001000101000100000100 *
b10001000101000100000100 M
b10001000101000100000100 |
b10001000101000100000100 S"
b100000100 +
b100000100 N
b100000100 h
b100000100 ~
b100000100 R"
b100 .
b100 Q
b100 a
b100 l
b100 '"
b100 P"
b100 H
b100 Z
b100 ,
b100 O
b100 $"
b100 Q"
b1000100010100010000101000 :
b1000100010100010000101000 V
b1000100010100010000101000 \"
b11000 0
b11000 R
b11000 ,"
b11000 O"
b0 5
b0 S
b0 ]
b0 1"
b0 N"
0?
b1010 "
1!
#200
0!
#210
17"
b100 2"
b100 D"
b100 F"
0v
04
b101001 $
b101001 y
b101001 Y"
b101001 !#
b101 7
b101 T
b101 d
b101 r
b101 l"
b101 x"
b100 -
b100 P
b100 e
b100 m"
b100 s"
b0 <
b0 W
b0 c
b0 k"
b0 r"
b0 v"
0>
b101001 ;
b101001 q"
b101001 y"
b101001 |"
b100 6
b100 3"
b100 Z"
b100 n"
b100 {"
b100 ~"
b1011 "
1!
#220
b101001 %"
b101001 J"
b101001 V"
b101001 ("
b101001 K"
b101001 U"
0!
