build/test.vcd
$date
	Sat Jun 12 23:16:51 2021
$end
$version
	Icarus Verilog
$end
$timescale
	1ns
$end
$scope module tb $end
$scope module uut $end
$var wire 1 ! clk $end
$var wire 32 " i [31:0] $end
$var wire 1 # rst $end
$var wire 32 $ val_WB [31:0] $end
$var wire 1 % two_src_ID $end
$var wire 4 & status_ID [3:0] $end
$var wire 4 ' status_EXE [3:0] $end
$var wire 4 ( src2_ID [3:0] $end
$var wire 4 ) src1_ID [3:0] $end
$var wire 24 * signed_imm_24_ID [23:0] $end
$var wire 12 + shifter_operand_ID [11:0] $end
$var wire 32 , rn_val_ID [31:0] $end
$var wire 32 - rm_val_ID [31:0] $end
$var wire 32 . rm_val_EXE [31:0] $end
$var wire 32 / pc_IF [31:0] $end
$var wire 32 0 pc_ID [31:0] $end
$var wire 1 1 move $end
$var wire 32 2 instruction_IF [31:0] $end
$var wire 1 3 imm_ID $end
$var wire 1 4 hazard $end
$var wire 4 5 exe_cmd_ID [3:0] $end
$var wire 4 6 dest_WB [3:0] $end
$var wire 4 7 dest_MEM2 [3:0] $end
$var wire 4 8 dest_MEM [3:0] $end
$var wire 4 9 dest_ID [3:0] $end
$var wire 4 : dest_EXE2 [3:0] $end
$var wire 4 ; dest_EXE [3:0] $end
$var wire 32 < data_mem_MEM [31:0] $end
$var wire 32 = branch_address_EXE [31:0] $end
$var wire 32 > alu_res_MEM [31:0] $end
$var wire 32 ? alu_res_EXE [31:0] $end
$var wire 1 @ WB_EN_WB $end
$var wire 1 A WB_EN_MEM2 $end
$var wire 1 B WB_EN_MEM $end
$var wire 1 C WB_EN_ID $end
$var wire 1 D WB_EN_EXE2 $end
$var wire 1 E WB_EN_EXE $end
$var wire 1 F S_ID $end
$var wire 1 G MEM_W_EN_ID $end
$var wire 1 H MEM_W_EN_EXE $end
$var wire 1 I MEM_R_EN_MEM $end
$var wire 1 J MEM_R_EN_ID $end
$var wire 1 K MEM_R_EN_EXE $end
$var wire 1 L B_ID $end
$var wire 1 M B_EXE $end
$scope module EXE $end
$var wire 1 M B_out $end
$var wire 1 D EXE_WB_EN $end
$var wire 4 N EXE_dst [3:0] $end
$var wire 1 O MEM_EN $end
$var wire 1 ! clk $end
$var wire 1 # rst $end
$var wire 32 P val1 [31:0] $end
$var wire 32 Q val_rn [31:0] $end
$var wire 32 R val_rm_out [31:0] $end
$var wire 32 S val_rm [31:0] $end
$var wire 32 T val2 [31:0] $end
$var wire 4 U status_out [3:0] $end
$var wire 4 V status_in [3:0] $end
$var wire 4 W status_bits [3:0] $end
$var wire 24 X signed_imm_24 [23:0] $end
$var wire 12 Y shifter_oprand [11:0] $end
$var wire 32 Z pc [31:0] $end
$var wire 1 3 imm $end
$var wire 4 [ dest_out [3:0] $end
$var wire 4 \ dest [3:0] $end
$var wire 32 ] branch_address [31:0] $end
$var wire 32 ^ alu_res_out [31:0] $end
$var wire 32 _ alu_res [31:0] $end
$var wire 1 E WB_EN_OUT $end
$var wire 1 C WB_EN $end
$var wire 1 F S $end
$var wire 1 H MEM_W_EN_OUT $end
$var wire 1 G MEM_W_EN $end
$var wire 1 K MEM_R_EN_OUT $end
$var wire 1 J MEM_R_EN $end
$var wire 4 ` EXE_CMD [3:0] $end
$var wire 1 a C $end
$var wire 1 L B $end
$scope module alu $end
$var wire 1 a c $end
$var wire 32 b val1 [31:0] $end
$var wire 32 c val2 [31:0] $end
$var wire 32 d result [31:0] $end
$var wire 4 e EXE_CMD [3:0] $end
$var reg 4 f status_bits [3:0] $end
$var reg 33 g tmp [32:0] $end
$upscope $end
$scope module pr_exe_mem $end
$var wire 32 h ALU_RES_IN [31:0] $end
$var wire 1 ! clk $end
$var wire 1 # rst $end
$var wire 1 C WB_EN_IN $end
$var wire 32 i VAL_RM_IN [31:0] $end
$var wire 1 G MEM_W_EN_IN $end
$var wire 1 J MEM_R_EN_IN $end
$var wire 4 j DEST_IN [3:0] $end
$var reg 32 k ALU_RES_OUT [31:0] $end
$var reg 4 l DEST_OUT [3:0] $end
$var reg 1 K MEM_R_EN_OUT $end
$var reg 1 H MEM_W_EN_OUT $end
$var reg 32 m VAL_RM_OUT [31:0] $end
$var reg 1 E WB_EN_OUT $end
$upscope $end
$scope module sr $end
$var wire 1 ! clk $end
$var wire 1 # rst $end
$var wire 4 n status_bits_in [3:0] $end
$var wire 1 F s $end
$var reg 4 o status_bits_out [3:0] $end
$upscope $end
$scope module v2g $end
$var wire 1 O mem_en $end
$var wire 12 p shifter_oprand [11:0] $end
$var wire 5 q shift_imm [4:0] $end
$var wire 2 r shift [1:0] $end
$var wire 4 s rotate_imm [3:0] $end
$var wire 32 t rm_val [31:0] $end
$var wire 4 u rm [3:0] $end
$var wire 8 v immed_8 [7:0] $end
$var wire 1 3 imm $end
$var wire 1 w fourth $end
$var reg 32 x val2 [31:0] $end
$var integer 32 y i [31:0] $end
$upscope $end
$upscope $end
$scope module HAZARD $end
$var wire 1 D WB_EN_EXE2 $end
$var wire 4 z dest_EXE2 [3:0] $end
$var wire 1 % two_src_ID $end
$var wire 4 { src2_ID [3:0] $end
$var wire 4 | src1_ID [3:0] $end
$var wire 1 1 move $end
$var wire 4 } dest_MEM2 [3:0] $end
$var wire 1 A WB_EN_MEM2 $end
$var reg 1 4 hazard $end
$upscope $end
$scope module ID $end
$var wire 1 ! clk $end
$var wire 1 4 hzrdIn $end
$var wire 1 ~ mux_cc $end
$var wire 1 # rst $end
$var wire 4 !" srIn [3:0] $end
$var wire 4 "" src1 [3:0] $end
$var wire 1 % twoSrc $end
$var wire 1 #" wb_ctrl $end
$var wire 32 $" wbValIn [31:0] $end
$var wire 1 @ wbIn $end
$var wire 1 C wbEnOut $end
$var wire 4 %" wbDstIn [3:0] $end
$var wire 4 &" src2 [3:0] $end
$var wire 4 '" srOut [3:0] $end
$var wire 24 (" signedImm24Out [23:0] $end
$var wire 24 )" signedImm24 [23:0] $end
$var wire 12 *" shifterOpr [11:0] $end
$var wire 12 +" shOprOut [11:0] $end
$var wire 1 ," s_ctrl $end
$var wire 1 F sOut $end
$var wire 1 -" s $end
$var wire 4 ." rs [3:0] $end
$var wire 32 /" rnValOut [31:0] $end
$var wire 32 0" rnVal [31:0] $end
$var wire 4 1" rn [3:0] $end
$var wire 32 2" rmValOut [31:0] $end
$var wire 32 3" rmVal [31:0] $end
$var wire 4 4" rm [3:0] $end
$var wire 4 5" rd [3:0] $end
$var wire 32 6" pcOut [31:0] $end
$var wire 32 7" pcIn [31:0] $end
$var wire 4 8" opcode [3:0] $end
$var wire 1 1 move $end
$var wire 2 9" mode [1:0] $end
$var wire 1 G memwEnOut $end
$var wire 1 J memrEnOut $end
$var wire 1 :" memWrite_ctrl $end
$var wire 1 ;" memRead_ctrl $end
$var wire 32 <" instructionIn [31:0] $end
$var wire 1 3 immOut $end
$var wire 1 =" imm $end
$var wire 4 >" exeCmd_ctrl [3:0] $end
$var wire 4 ?" exeCmdOut [3:0] $end
$var wire 4 @" destOut [3:0] $end
$var wire 4 A" cond [3:0] $end
$var wire 1 B" check_cc $end
$var wire 1 C" b_ctrl $end
$var wire 1 L bOut $end
$scope module cc $end
$var wire 4 D" cond [3:0] $end
$var wire 4 E" sr [3:0] $end
$var wire 1 F" Z $end
$var wire 1 G" V $end
$var wire 1 H" N $end
$var wire 1 I" C $end
$var reg 1 B" cCheck $end
$upscope $end
$scope module ctrl $end
$var wire 2 J" mode [1:0] $end
$var wire 1 ~ mux_cc $end
$var wire 4 K" opCode [3:0] $end
$var wire 1 -" sIn $end
$var reg 1 C" branch $end
$var reg 4 L" exeCmd [3:0] $end
$var reg 1 ;" memRead $end
$var reg 1 :" memWrite $end
$var reg 1 1 move $end
$var reg 1 ," sOut $end
$var reg 1 #" wbEn $end
$upscope $end
$scope module pr_id_exe $end
$var wire 1 C" bIn $end
$var wire 1 ! clk $end
$var wire 4 M" destIn [3:0] $end
$var wire 4 N" exeCmdIn [3:0] $end
$var wire 1 L flush $end
$var wire 1 =" immIn $end
$var wire 1 ;" memrEnIn $end
$var wire 1 :" memwEnIn $end
$var wire 1 # rst $end
$var wire 1 ," sIn $end
$var wire 12 O" shOprIn [11:0] $end
$var wire 24 P" signedImm24In [23:0] $end
$var wire 4 Q" srIn [3:0] $end
$var wire 1 #" wbEnIn $end
$var wire 32 R" rnValIn [31:0] $end
$var wire 32 S" rmValIn [31:0] $end
$var wire 32 T" pcIn [31:0] $end
$var reg 1 L b $end
$var reg 4 U" dest [3:0] $end
$var reg 4 V" exeCmd [3:0] $end
$var reg 1 3 imm $end
$var reg 1 J memrEn $end
$var reg 1 G memwEn $end
$var reg 32 W" pc [31:0] $end
$var reg 32 X" rmVal [31:0] $end
$var reg 32 Y" rnVal [31:0] $end
$var reg 1 F s $end
$var reg 12 Z" shOpr [11:0] $end
$var reg 24 [" signedImm24 [23:0] $end
$var reg 4 \" sr [3:0] $end
$var reg 1 C wbEn $end
$upscope $end
$scope module rf $end
$var wire 1 ! clk $end
$var wire 32 ]" reg1 [31:0] $end
$var wire 32 ^" reg2 [31:0] $end
$var wire 1 # rst $end
$var wire 4 _" src1 [3:0] $end
$var wire 4 `" src2 [3:0] $end
$var wire 32 a" wbVal [31:0] $end
$var wire 1 @ wbEn $end
$var wire 4 b" wbDst [3:0] $end
$var integer 32 c" i [31:0] $end
$upscope $end
$upscope $end
$scope module IF $end
$var wire 32 d" branchAddress [31:0] $end
$var wire 1 L branchTacken $end
$var wire 1 ! clk $end
$var wire 1 4 hzrd $end
$var wire 1 # rst $end
$var wire 32 e" pipedPc4 [31:0] $end
$var wire 32 f" pipedInstruction [31:0] $end
$var wire 32 g" pcOut [31:0] $end
$var wire 32 h" pcIn [31:0] $end
$var wire 32 i" pc4 [31:0] $end
$var wire 32 j" instruction [31:0] $end
$scope module PC $end
$var wire 1 ! clk $end
$var wire 1 4 freeze $end
$var wire 32 k" pcIn [31:0] $end
$var wire 1 # rst $end
$var reg 32 l" pcOut [31:0] $end
$upscope $end
$scope module im $end
$var wire 32 m" address [31:0] $end
$var wire 32 n" instruction [31:0] $end
$upscope $end
$scope module pr_if_id $end
$var wire 1 ! clk $end
$var wire 1 L flush $end
$var wire 1 4 freeze $end
$var wire 32 o" instructionIn [31:0] $end
$var wire 32 p" pcIn [31:0] $end
$var wire 1 # rst $end
$var reg 32 q" instructionOut [31:0] $end
$var reg 32 r" pcOut [31:0] $end
$upscope $end
$upscope $end
$scope module MEM $end
$var wire 1 K MEM_R_EN_EXE $end
$var wire 1 H MEM_W_EN_EXE $end
$var wire 1 E WB_EN_EXE $end
$var wire 1 A WB_EN_MEM2 $end
$var wire 32 s" alu_res_EXE [31:0] $end
$var wire 1 ! clk $end
$var wire 4 t" dest_EXE [3:0] $end
$var wire 4 u" dest_MEM2 [3:0] $end
$var wire 32 v" rm_val_EXE [31:0] $end
$var wire 1 # rst $end
$var wire 4 w" dest_MEM [3:0] $end
$var wire 32 x" data_mem_MEM [31:0] $end
$var wire 32 y" data_mem [31:0] $end
$var wire 32 z" alu_res_MEM [31:0] $end
$var wire 1 B WB_EN_MEM $end
$var wire 1 I MEM_R_EN_MEM $end
$scope module dm $end
$var wire 1 K MEM_R_EN $end
$var wire 1 H MEM_W_EN $end
$var wire 32 {" alu_res [31:0] $end
$var wire 1 ! clk $end
$var wire 32 |" rm_val [31:0] $end
$var wire 1 # rst $end
$var wire 32 }" data_mem [31:0] $end
$scope begin $ivl_for_loop0 $end
$var integer 32 ~" j [31:0] $end
$upscope $end
$upscope $end
$scope module pr_mem_wb $end
$var wire 1 K MEM_R_EN_EXE $end
$var wire 1 E WB_EN_EXE $end
$var wire 32 !# alu_res_EXE [31:0] $end
$var wire 1 ! clk $end
$var wire 32 "# data_mem [31:0] $end
$var wire 4 ## dest_EXE [3:0] $end
$var wire 1 # rst $end
$var reg 1 I MEM_R_EN_MEM $end
$var reg 1 B WB_EN_MEM $end
$var reg 32 $# alu_res_MEM [31:0] $end
$var reg 32 %# data_mem_MEM [31:0] $end
$var reg 4 &# dest_MEM [3:0] $end
$upscope $end
$upscope $end
$scope module WB $end
$var wire 1 I MEM_R_EN $end
$var wire 1 B WB_EN $end
$var wire 1 @ WB_EN_OUT $end
$var wire 32 '# alu_res [31:0] $end
$var wire 32 (# data_mem [31:0] $end
$var wire 4 )# dest [3:0] $end
$var wire 4 *# dest_out [3:0] $end
$var wire 32 +# val_out [31:0] $end
$upscope $end
$upscope $end
$upscope $end
$enddefinitions $end
#0
$dumpvars
bx +#
bx *#
bx )#
bx (#
bx '#
bx &#
bx %#
bx $#
bx ##
bx "#
bx !#
bx ~"
bx }"
bx |"
bx {"
bx z"
bx y"
bx x"
bx w"
bx v"
bx u"
bx t"
bx s"
bx r"
bx q"
b100 p"
b11100011101000000000000000010100 o"
b11100011101000000000000000010100 n"
b0 m"
b0 l"
bx k"
b11100011101000000000000000010100 j"
b100 i"
bx h"
b0 g"
bx f"
bx e"
bx d"
b1111 c"
bx b"
bx a"
bx `"
bx _"
bx ^"
bx ]"
bx \"
bx ["
bx Z"
bx Y"
bx X"
bx W"
bx V"
bx U"
bx T"
bx S"
bx R"
bx Q"
bx P"
bx O"
bx N"
bx M"
bx L"
bx K"
bx J"
xI"
xH"
xG"
xF"
bx E"
bx D"
xC"
xB"
bx A"
bx @"
bx ?"
bx >"
x="
bx <"
x;"
x:"
bx 9"
bx 8"
bx 7"
bx 6"
bx 5"
bx 4"
bx 3"
bx 2"
bx 1"
bx 0"
bx /"
bx ."
x-"
x,"
bx +"
bx *"
bx )"
bx ("
bx '"
bx &"
bx %"
bx $"
x#"
bx ""
bx !"
x~
bx }
bx |
bx {
bx z
bx y
bx x
xw
bx v
bx u
bx t
bx s
bx r
bx q
bx p
bx o
bx n
bx m
bx l
bx k
bx j
bx i
bx h
bx g
bx f
bx e
bx d
bx c
bx b
xa
bx `
bx _
bx ^
bx ]
bx \
bx [
bx Z
bx Y
bx X
bx W
bx V
bx U
bx T
bx S
bx R
bx Q
bx P
xO
bx N
xM
xL
xK
xJ
xI
xH
xG
xF
xE
xD
xC
xB
xA
x@
bx ?
bx >
bx =
bx <
bx ;
bx :
bx 9
bx 8
bx 7
bx 6
bx 5
x4
x3
bx 2
x1
bx 0
bx /
bx .
bx -
bx ,
bx +
bx *
bx )
bx (
bx '
bx &
x%
bx $
0#
b0 "
0!
$end
#10
1~
1%
b0 3"
b0 S"
b0 ^"
b0 (
b0 {
b0 &"
b0 `"
b0 >"
b0 L"
b0 N"
0;"
0:"
0#"
0C"
0,"
01
0B"
b0 _
b0 d
b0 h
0H"
0F"
0I"
0G"
b0 )"
b0 P"
b0 *"
b0 O"
b0 ."
b0 4"
b0 5"
b0 M"
b0 0"
b0 R"
b0 ]"
b0 )
b0 |
b0 ""
b0 _"
b0 1"
0-"
b0 8"
b0 K"
0="
b0 9"
b0 J"
b0 A"
b0 D"
0a
b0 =
b0 ]
b0 d"
b0 u
0w
b0 r
b0 q
b0 v
b0 s
b0 y
b0 T
b0 c
b0 x
b100 W
b100 f
b100 n
b0 g
b100 h"
b100 k"
0O
b0 y"
b0 }"
b0 "#
04
b0 $
b0 $"
b0 a"
b0 +#
b0 '
b0 U
b0 o
b0 !"
b0 E"
b0 Q"
b0 /
b0 7"
b0 T"
b0 e"
b0 r"
b0 2
b0 <"
b0 f"
b0 q"
b0 &
b0 V
b0 '"
b0 \"
b0 :
b0 N
b0 z
b0 9
b0 \
b0 j
b0 @"
b0 U"
b0 *
b0 X
b0 ("
b0 ["
b0 +
b0 Y
b0 p
b0 +"
b0 Z"
03
b0 -
b0 S
b0 i
b0 t
b0 2"
b0 X"
b0 P
b0 b
b0 ,
b0 Q
b0 /"
b0 Y"
b0 0
b0 Z
b0 6"
b0 W"
b0 5
b0 `
b0 e
b0 ?"
b0 V"
0M
0L
0F
0G
0J
0D
0C
b0 7
b0 }
b0 u"
b0 ;
b0 [
b0 l
b0 t"
b0 ##
b0 .
b0 R
b0 m
b0 v"
b0 |"
b0 ?
b0 ^
b0 k
b0 s"
b0 {"
b0 !#
0H
0K
0A
0E
0@
0B
0I
b0 >
b0 z"
b0 $#
b0 '#
b0 <
b0 x"
b0 %#
b0 (#
b0 6
b0 %"
b0 b"
b0 *#
b0 8
b0 w"
b0 &#
b0 )#
b1000000 ~"
b1111 c"
1#
b1 "
1!
#20
0#
0!
#30
11
1#"
b1 >"
b1 L"
b1 N"
0~
0%
b100 3"
b100 S"
b100 ^"
b100 (
b100 {
b100 &"
b100 `"
1B"
b101000000000000000010100 )"
b101000000000000000010100 P"
b10100 *"
b10100 O"
b100 4"
b1101 8"
b1101 K"
1="
b1110 A"
b1110 D"
b1000 h"
b1000 k"
b100 /
b100 7"
b100 T"
b100 e"
b100 r"
b11100011101000000000000000010100 2
b11100011101000000000000000010100 <"
b11100011101000000000000000010100 f"
b11100011101000000000000000010100 q"
b11100011101000000001101000000001 j"
b11100011101000000001101000000001 n"
b11100011101000000001101000000001 o"
b1000 i"
b1000 p"
b100 g"
b100 l"
b100 m"
b10 "
1!
#40
0!
#50
b10100 _
b10100 d
b10100 h
b0 W
b0 f
b0 n
b10100 g
b1 3"
b1 S"
b1 ^"
b1 (
b1 {
b1 &"
b1 `"
b10100 T
b10100 c
b10100 x
b1100 h"
b1100 k"
b101000000001101000000001 )"
b101000000001101000000001 P"
b101000000001 *"
b101000000001 O"
b1010 ."
b1 4"
b1 5"
b1 M"
b100 u
1w
b10100 v
b11100011101000000010000100000011 j"
b11100011101000000010000100000011 n"
b11100011101000000010000100000011 o"
b1100 i"
b1100 p"
b1000 g"
b1000 l"
b1000 m"
b1000 /
b1000 7"
b1000 T"
b1000 e"
b1000 r"
b11100011101000000001101000000001 2
b11100011101000000001101000000001 <"
b11100011101000000001101000000001 f"
b11100011101000000001101000000001 q"
b101000000000000000010100 *
b101000000000000000010100 X
b101000000000000000010100 ("
b101000000000000000010100 ["
b10100 +
b10100 Y
b10100 p
b10100 +"
b10100 Z"
13
b100 -
b100 S
b100 i
b100 t
b100 2"
b100 X"
b11111110100000000000000001010100 =
b11111110100000000000000001010100 ]
b11111110100000000000000001010100 d"
b100 0
b100 Z
b100 6"
b100 W"
b1 5
b1 `
b1 e
b1 ?"
b1 V"
1D
1C
b11 "
1!
#60
0!
#70
b1000000000000 _
b1000000000000 d
b1000000000000 h
b1000000000000 g
b1010 y
b1000000000000 T
b1000000000000 c
b1000000000000 x
b11 3"
b11 S"
b11 ^"
b11 (
b11 {
b11 &"
b11 `"
b1 u
0w
b10100 q
b1 v
b1010 s
b101000000010000100000011 )"
b101000000010000100000011 P"
b100000011 *"
b100000011 O"
b1 ."
b11 4"
b10 5"
b10 M"
b10000 h"
b10000 k"
b100 .
b100 R
b100 m
b100 v"
b100 |"
b10100 ?
b10100 ^
b10100 k
b10100 s"
b10100 {"
b10100 !#
1A
1E
b1 :
b1 N
b1 z
b1 9
b1 \
b1 j
b1 @"
b1 U"
b101000000001101000000001 *
b101000000001101000000001 X
b101000000001101000000001 ("
b101000000001101000000001 ["
b101000000001 +
b101000000001 Y
b101000000001 p
b101000000001 +"
b101000000001 Z"
b1 -
b1 S
b1 i
b1 t
b1 2"
b1 X"
b11111110100000000110100000001100 =
b11111110100000000110100000001100 ]
b11111110100000000110100000001100 d"
b1000 0
b1000 Z
b1000 6"
b1000 W"
b1100 /
b1100 7"
b1100 T"
b1100 e"
b1100 r"
b11100011101000000010000100000011 2
b11100011101000000010000100000011 <"
b11100011101000000010000100000011 f"
b11100011101000000010000100000011 q"
b11100000100100100011000000000010 j"
b11100000100100100011000000000010 n"
b11100000100100100011000000000010 o"
b10000 i"
b10000 p"
b1100 g"
b1100 l"
b1100 m"
b100 "
1!
#80
0!
#90
b11000000000000000000000000000000 _
b11000000000000000000000000000000 d
b11000000000000000000000000000000 h
1~
1%
b1000 W
b1000 f
b1000 n
b111000000000000000000000000000000 g
b10 3"
b10 S"
b10 ^"
b10 (
b10 {
b10 &"
b10 `"
14
0,"
b0 >"
b0 L"
b0 N"
0#"
01
b10100 h"
b10100 k"
b100100100011000000000010 )"
b100100100011000000000010 P"
b10 *"
b10 O"
b0 ."
b10 4"
b11 5"
b11 M"
b10 0"
b10 R"
b10 ]"
b10 )
b10 |
b10 ""
b10 _"
b10 1"
1-"
b100 8"
b100 K"
0="
b11 u
b10 q
b11 v
b1 s
b1 y
b11000000000000000000000000000000 T
b11000000000000000000000000000000 c
b11000000000000000000000000000000 x
b10100 $
b10100 $"
b10100 a"
b10100 +#
b11100000101000000100000000000000 j"
b11100000101000000100000000000000 n"
b11100000101000000100000000000000 o"
b10100 i"
b10100 p"
b10000 g"
b10000 l"
b10000 m"
b10000 /
b10000 7"
b10000 T"
b10000 e"
b10000 r"
b11100000100100100011000000000010 2
b11100000100100100011000000000010 <"
b11100000100100100011000000000010 f"
b11100000100100100011000000000010 q"
b10 :
b10 N
b10 z
b10 9
b10 \
b10 j
b10 @"
b10 U"
b101000000010000100000011 *
b101000000010000100000011 X
b101000000010000100000011 ("
b101000000010000100000011 ["
b100000011 +
b100000011 Y
b100000011 p
b100000011 +"
b100000011 Z"
b11 -
b11 S
b11 i
b11 t
b11 2"
b11 X"
b11111110100000001000010000011000 =
b11111110100000001000010000011000 ]
b11111110100000001000010000011000 d"
b1100 0
b1100 Z
b1100 6"
b1100 W"
b1 7
b1 }
b1 u"
b1 ;
b1 [
b1 l
b1 t"
b1 ##
b1 .
b1 R
b1 m
b1 v"
b1 |"
b1000000000000 ?
b1000000000000 ^
b1000000000000 k
b1000000000000 s"
b1000000000000 {"
b1000000000000 !#
1@
1B
b10100 >
b10100 z"
b10100 $#
b10100 '#
b101 "
1!
#100
0!
#110
b0 _
b0 d
b0 h
b1000000000000 $
b1000000000000 $"
b1000000000000 a"
b1000000000000 +#
b10 u
b0 q
b10 v
b0 s
b0 y
b10 T
b10 c
b10 x
b100 W
b100 f
b100 n
b0 g
14
b1000000000000 >
b1000000000000 z"
b1000000000000 $#
b1000000000000 '#
b1 6
b1 %"
b1 b"
b1 *#
b1 8
b1 w"
b1 &#
b1 )#
b10 7
b10 }
b10 u"
b10 ;
b10 [
b10 l
b10 t"
b10 ##
b11 .
b11 R
b11 m
b11 v"
b11 |"
b11000000000000000000000000000000 ?
b11000000000000000000000000000000 ^
b11000000000000000000000000000000 k
b11000000000000000000000000000000 s"
b11000000000000000000000000000000 {"
b11000000000000000000000000000000 !#
b11 :
b11 N
b11 z
b11 9
b11 \
b11 j
b11 @"
b11 U"
b100100100011000000000010 *
b100100100011000000000010 X
b100100100011000000000010 ("
b100100100011000000000010 ["
b10 +
b10 Y
b10 p
b10 +"
b10 Z"
03
b10 -
b10 S
b10 i
b10 t
b10 2"
b10 X"
b10 P
b10 b
b10 ,
b10 Q
b10 /"
b10 Y"
b11111110010010001100000000011000 =
b11111110010010001100000000011000 ]
b11111110010010001100000000011000 d"
b10000 0
b10000 Z
b10000 6"
b10000 W"
b0 5
b0 `
b0 e
b0 ?"
b0 V"
0D
0C
b110 "
1!
#120
0!
#130
1#"
1,"
b10 >"
b10 L"
b10 N"
0~
04
b11000000000000000000000000000000 $
b11000000000000000000000000000000 $"
b11000000000000000000000000000000 a"
b11000000000000000000000000000000 +#
b11 7
b11 }
b11 u"
b11 ;
b11 [
b11 l
b11 t"
b11 ##
b10 .
b10 R
b10 m
b10 v"
b10 |"
b0 ?
b0 ^
b0 k
b0 s"
b0 {"
b0 !#
0A
0E
b11000000000000000000000000000000 >
b11000000000000000000000000000000 z"
b11000000000000000000000000000000 $#
b11000000000000000000000000000000 '#
b10 6
b10 %"
b10 b"
b10 *#
b10 8
b10 w"
b10 &#
b10 )#
b111 "
1!
#140
b11000000000000000000000000000000 0"
b11000000000000000000000000000000 R"
b11000000000000000000000000000000 ]"
b11000000000000000000000000000000 3"
b11000000000000000000000000000000 S"
b11000000000000000000000000000000 ^"
0!
#150
b10000000000000000000000000000000 _
b10000000000000000000000000000000 d
b10000000000000000000000000000000 h
b10100 3"
b10100 S"
b10100 ^"
b0 (
b0 {
b0 &"
b0 `"
b11 >"
b11 L"
b11 N"
1#"
0,"
b0 $
b0 $"
b0 a"
b0 +#
b11000000000000000000000000000000 T
b11000000000000000000000000000000 c
b11000000000000000000000000000000 x
b1010 W
b1010 f
b1010 n
b110000000000000000000000000000000 g
b101000000100000000000000 )"
b101000000100000000000000 P"
b0 *"
b0 O"
b0 4"
b100 5"
b100 M"
b10100 0"
b10100 R"
b10100 ]"
b0 )
b0 |
b0 ""
b0 _"
b0 1"
0-"
b101 8"
b101 K"
b11000 h"
b11000 k"
0@
0B
b0 >
b0 z"
b0 $#
b0 '#
b11 6
b11 %"
b11 b"
b11 *#
b11 8
b11 w"
b11 &#
b11 )#
b11000000000000000000000000000000 -
b11000000000000000000000000000000 S
b11000000000000000000000000000000 i
b11000000000000000000000000000000 t
b11000000000000000000000000000000 2"
b11000000000000000000000000000000 X"
b11000000000000000000000000000000 P
b11000000000000000000000000000000 b
b11000000000000000000000000000000 ,
b11000000000000000000000000000000 Q
b11000000000000000000000000000000 /"
b11000000000000000000000000000000 Y"
b10 5
b10 `
b10 e
b10 ?"
b10 V"
1F
1D
1C
b10100 /
b10100 7"
b10100 T"
b10100 e"
b10100 r"
b11100000101000000100000000000000 2
b11100000101000000100000000000000 <"
b11100000101000000100000000000000 f"
b11100000101000000100000000000000 q"
b11100000010001000101000100000100 j"
b11100000010001000101000100000100 n"
b11100000010001000101000100000100 o"
b11000 i"
b11000 p"
b10100 g"
b10100 l"
b10100 m"
b1000 "
1!
#160
1H"
1I"
b1010 '
b1010 U
b1010 o
b1010 !"
b1010 E"
b1010 Q"
0!
#170
1~
b100 3"
b100 S"
b100 ^"
b100 (
b100 {
b100 &"
b100 `"
14
b0 >"
b0 L"
b0 N"
0#"
b0 W
b0 f
b0 n
b101001 _
b101001 d
b101001 h
b11100 h"
b11100 k"
b10001000101000100000100 )"
b10001000101000100000100 P"
b100000100 *"
b100000100 O"
b1 ."
b100 4"
b101 5"
b101 M"
b100 0"
b100 R"
b100 ]"
b100 )
b100 |
b100 ""
b100 _"
b100 1"
b10 8"
b10 K"
1a
b0 u
b0 v
b10100 T
b10100 c
b10100 x
b101001 g
b11100000110000000110000010100000 j"
b11100000110000000110000010100000 n"
b11100000110000000110000010100000 o"
b11100 i"
b11100 p"
b11000 g"
b11000 l"
b11000 m"
b11000 /
b11000 7"
b11000 T"
b11000 e"
b11000 r"
b11100000010001000101000100000100 2
b11100000010001000101000100000100 <"
b11100000010001000101000100000100 f"
b11100000010001000101000100000100 q"
b1010 &
b1010 V
b1010 '"
b1010 \"
b100 :
b100 N
b100 z
b100 9
b100 \
b100 j
b100 @"
b100 U"
b101000000100000000000000 *
b101000000100000000000000 X
b101000000100000000000000 ("
b101000000100000000000000 ["
b0 +
b0 Y
b0 p
b0 +"
b0 Z"
b10100 -
b10100 S
b10100 i
b10100 t
b10100 2"
b10100 X"
b10100 P
b10100 b
b10100 ,
b10100 Q
b10100 /"
b10100 Y"
b11111110100000010000000000010100 =
b11111110100000010000000000010100 ]
b11111110100000010000000000010100 d"
b10100 0
b10100 Z
b10100 6"
b10100 W"
b11 5
b11 `
b11 e
b11 ?"
b11 V"
0F
b11000000000000000000000000000000 .
b11000000000000000000000000000000 R
b11000000000000000000000000000000 m
b11000000000000000000000000000000 v"
b11000000000000000000000000000000 |"
b10000000000000000000000000000000 ?
b10000000000000000000000000000000 ^
b10000000000000000000000000000000 k
b10000000000000000000000000000000 s"
b10000000000000000000000000000000 {"
b10000000000000000000000000000000 !#
1A
1E
b1001 "
1!
#180
0!
#190
b10 y
b0 _
b0 d
b0 h
b10000000000000000000000000000000 $
b10000000000000000000000000000000 $"
b10000000000000000000000000000000 a"
b10000000000000000000000000000000 +#
b100 u
b10 q
b100 v
b1 s
b10000 T
b10000 c
b10000 x
b100 W
b100 f
b100 n
b0 g
14
1@
1B
b10000000000000000000000000000000 >
b10000000000000000000000000000000 z"
b10000000000000000000000000000000 $#
b10000000000000000000000000000000 '#
b100 7
b100 }
b100 u"
b100 ;
b100 [
b100 l
b100 t"
b100 ##
b10100 .
b10100 R
b10100 m
b10100 v"
b10100 |"
b101001 ?
b101001 ^
b101001 k
b101001 s"
b101001 {"
b101001 !#
b101 :
b101 N
b101 z
b101 9
b101 \
b101 j
b101 @"
b101 U"
b10001000101000100000100 *
b10001000101000100000100 X
b10001000101000100000100 ("
b10001000101000100000100 ["
b100000100 +
b100000100 Y
b100000100 p
b100000100 +"
b100000100 Z"
b100 -
b100 S
b100 i
b100 t
b100 2"
b100 X"
b100 P
b100 b
b100 ,
b100 Q
b100 /"
b100 Y"
b1000100010100010000101000 =
b1000100010100010000101000 ]
b1000100010100010000101000 d"
b11000 0
b11000 Z
b11000 6"
b11000 W"
b0 5
b0 `
b0 e
b0 ?"
b0 V"
0D
0C
b1010 "
1!
#200
0!
#210
1#"
b100 >"
b100 L"
b100 N"
0~
04
b101001 $
b101001 $"
b101001 a"
b101001 +#
b101 7
b101 }
b101 u"
b101 ;
b101 [
b101 l
b101 t"
b101 ##
b100 .
b100 R
b100 m
b100 v"
b100 |"
b0 ?
b0 ^
b0 k
b0 s"
b0 {"
b0 !#
0A
0E
b101001 >
b101001 z"
b101001 $#
b101001 '#
b100 6
b100 %"
b100 b"
b100 *#
b100 8
b100 w"
b100 &#
b100 )#
b1011 "
1!
#220
b101001 0"
b101001 R"
b101001 ]"
b101001 3"
b101001 S"
b101001 ^"
0!
